[
{"name":"flare.analytics.cluster.AgglomerativeCluster","size":3938,"imports":["flare.animate.Transitioner"]},
{"name":"flare.analytics.cluster.CommunityStructure","size":3812,"imports":["flare.animate.Transitioner"]},
{"name":"flare.analytics.cluster.HierarchicalCluster","size":6714,"imports":["flare.animate.Transitioner"]},
{"name":"flare.animate.Transitioner","size":6714,"imports":["flare.analytics.cluster.AgglomerativeCluster"]}
]
