<?xml version="1.0" encoding="UTF-8" standalone="no"?>
<!-- Generator: Adobe Illustrator 16.0.0, SVG Export Plug-In . SVG Version: 6.00 Build 0)  -->

<svg
   xmlns:dc="http://purl.org/dc/elements/1.1/"
   xmlns:cc="http://creativecommons.org/ns#"
   xmlns:rdf="http://www.w3.org/1999/02/22-rdf-syntax-ns#"
   xmlns:svg="http://www.w3.org/2000/svg"
   xmlns="http://www.w3.org/2000/svg"
   xmlns:sodipodi="http://sodipodi.sourceforge.net/DTD/sodipodi-0.dtd"
   xmlns:inkscape="http://www.inkscape.org/namespaces/inkscape"
   version="1.1"
   id="Layer_1"
   x="0px"
   y="0px"
   width="32px"
   height="31.831px"
   viewBox="0 0 32 31.831"
   style="enable-background:new 0 0 32 31.831;"
   xml:space="preserve"
   inkscape:version="0.48.4 r9939"
   sodipodi:docname="2.svg"><metadata
     id="metadata3023"><rdf:RDF><cc:Work
         rdf:about=""><dc:format>image/svg+xml</dc:format><dc:type
           rdf:resource="http://purl.org/dc/dcmitype/StillImage" /></cc:Work></rdf:RDF></metadata><defs
     id="defs3021" /><sodipodi:namedview
     pagecolor="#ffffff"
     bordercolor="#666666"
     borderopacity="1"
     objecttolerance="10"
     gridtolerance="10"
     guidetolerance="10"
     inkscape:pageopacity="0"
     inkscape:pageshadow="2"
     inkscape:window-width="1313"
     inkscape:window-height="744"
     id="namedview3019"
     showgrid="false"
     inkscape:zoom="7.4141562"
     inkscape:cx="-8.8848279"
     inkscape:cy="15.9155"
     inkscape:window-x="53"
     inkscape:window-y="24"
     inkscape:window-maximized="1"
     inkscape:current-layer="Layer_1" /><path
     d="M31.41,16.648c0.786-0.402,0.786-1.063,0-1.47c-0.782-0.403-0.864-1.191-0.183-1.749c0.683-0.558,0.545-1.206-0.305-1.438  c-0.852-0.233-1.096-0.987-0.544-1.675c0.552-0.688,0.282-1.291-0.598-1.343c-0.881-0.05-1.277-0.734-0.879-1.522  c0.394-0.79,0.008-1.324-0.864-1.19c-0.874,0.134-1.403-0.454-1.179-1.309c0.225-0.852-0.267-1.295-1.092-0.984  c-0.824,0.313-1.467-0.152-1.425-1.034c0.043-0.881-0.53-1.212-1.272-0.734c-0.743,0.477-1.465,0.155-1.609-0.717  c-0.142-0.871-0.77-1.074-1.396-0.454c-0.628,0.622-1.402,0.456-1.722-0.365c-0.32-0.823-0.977-0.891-1.461-0.155  c-0.485,0.739-1.277,0.739-1.762,0c-0.482-0.736-1.141-0.667-1.461,0.155c-0.319,0.821-1.094,0.986-1.72,0.365  c-0.628-0.62-1.256-0.417-1.398,0.454c-0.143,0.872-0.866,1.194-1.608,0.717C8.188,1.723,7.616,2.054,7.657,2.935  c0.042,0.882-0.598,1.347-1.423,1.034C5.408,3.657,4.916,4.101,5.14,4.953c0.226,0.854-0.305,1.442-1.176,1.309  c-0.873-0.134-1.262,0.4-0.864,1.19C3.496,8.24,3.101,8.924,2.22,8.974c-0.882,0.052-1.151,0.655-0.599,1.343  c0.551,0.688,0.308,1.441-0.542,1.675c-0.853,0.231-0.99,0.88-0.306,1.438c0.683,0.558,0.601,1.346-0.184,1.749  c-0.785,0.406-0.785,1.067,0,1.47c0.784,0.406,0.867,1.193,0.184,1.752c-0.684,0.559-0.547,1.206,0.306,1.438  c0.85,0.231,1.094,0.985,0.542,1.674C1.069,22.2,1.338,22.804,2.22,22.856c0.88,0.049,1.275,0.734,0.879,1.524  c-0.397,0.786-0.009,1.321,0.864,1.187c0.871-0.132,1.402,0.456,1.176,1.309c-0.224,0.854,0.268,1.296,1.094,0.984  c0.825-0.313,1.465,0.153,1.423,1.035c-0.042,0.88,0.531,1.21,1.273,0.733c0.742-0.476,1.465-0.154,1.608,0.717  c0.143,0.869,0.771,1.075,1.398,0.453c0.626-0.62,1.401-0.455,1.72,0.367c0.32,0.823,0.979,0.891,1.461,0.154  c0.485-0.738,1.277-0.738,1.762,0c0.484,0.736,1.141,0.669,1.461-0.154c0.32-0.822,1.094-0.987,1.722-0.367  c0.627,0.622,1.255,0.416,1.396-0.453c0.144-0.871,0.866-1.192,1.609-0.717c0.743,0.477,1.315,0.146,1.272-0.733  c-0.042-0.882,0.601-1.348,1.425-1.035c0.825,0.312,1.316-0.13,1.092-0.984c-0.224-0.853,0.305-1.44,1.179-1.309  c0.872,0.135,1.258-0.4,0.864-1.187c-0.398-0.79-0.002-1.476,0.879-1.524c0.88-0.052,1.15-0.656,0.598-1.345  c-0.552-0.688-0.308-1.442,0.544-1.674c0.85-0.231,0.988-0.879,0.305-1.438C30.546,17.841,30.628,17.054,31.41,16.648z   M16.055,29.042c-3.899,0-7.393-1.729-9.767-4.449c0.298-0.023,0.633-0.045,0.917-0.045c0.282,0,0.566-0.018,0.839-0.034  c0.24-0.016,0.471-0.027,0.683-0.027h0.099c0.2,0.041,0.402,0.063,0.613,0.087c0.188,0.02,0.382,0.039,0.586,0.079  c0.229,0.045,0.465,0.268,0.694,0.483c0.132,0.125,0.263,0.246,0.391,0.338c0.131,0.093,0.258,0.185,0.388,0.279  c0.397,0.289,0.809,0.589,1.276,0.797c0.576,0.248,1.211,0.33,1.828,0.409c0.299,0.038,0.596,0.075,0.881,0.134  c0.186,0.021,0.346,0.039,0.507,0.057c0.483,0.055,0.982,0.112,1.481,0.112c0.337,0,0.635-0.026,0.909-0.081  c0.985-0.28,1.611-1.079,1.612-1.996c0.501-0.199,0.948-0.617,1.231-1.152c0.252-0.479,0.337-0.991,0.246-1.443  c0.951-0.623,1.441-1.79,1.178-2.791c0.419-0.288,0.709-0.771,0.81-1.36c0.14-0.816-0.111-1.683-0.64-2.208  c-0.701-0.667-1.667-0.828-2.522-0.97c-0.134-0.022-0.266-0.046-0.396-0.068c-0.096-0.026-0.219-0.055-0.343-0.082  c-1.138-0.266-1.943-0.523-1.944-1.455c-0.003-0.614,0.2-1.181,0.413-1.784c0.245-0.689,0.498-1.403,0.458-2.235  c-0.077-1.481-0.706-2.771-1.683-3.45c-0.39-0.312-0.904-0.496-1.392-0.496c-0.727,0-1.269,0.395-1.49,1.083  c-0.155,0.465-0.129,0.914-0.102,1.392c0.006,0.118,0.014,0.239,0.018,0.364c0.027,0.657-0.051,1.199-0.243,1.713  c-0.364,1.026-1.094,1.982-1.689,2.702l-0.327,0.409c-0.456,0.574-0.926,1.17-1.462,1.647c-0.263,0.208-0.543,0.282-0.903,0.36  c-0.101,0.005-0.189,0.033-0.264,0.054c-0.047,0.018-0.1,0.033-0.128,0.033c-0.354-0.026-0.731-0.054-1.12-0.054  c-0.535,0-3.09,0.025-4.546,0.04C3.543,8.691,9.173,3.321,16.055,3.321c7.136,0,12.942,5.769,12.942,12.859  C28.997,23.271,23.19,29.042,16.055,29.042z M15.152,8.065l-0.006-0.112c-0.028-0.45-0.036-0.936,0.219-0.972  c0.018-0.001,0.039-0.003,0.06-0.003c0.414,0,0.934,0.519,1.242,1c0.323,0.612,0.491,1.255,0.475,1.834  c-0.017,0.603-0.213,1.174-0.422,1.779c-0.245,0.712-0.5,1.451-0.44,2.257c0.083,1.096,0.953,2.043,2.165,2.356  c0.354,0.093,0.728,0.153,1.09,0.212c0.676,0.109,1.374,0.225,1.944,0.543c0.372,0.188,0.768,0.579,0.698,1.095  c-0.033,0.281-0.161,0.627-0.587,0.705c-0.23,0.065-0.384,0.199-0.458,0.389c-0.089,0.227-0.056,0.511,0.091,0.755  c0.154,0.184,0.178,0.565,0.087,0.899c-0.125,0.397-0.414,0.677-0.863,0.83c-0.191,0.023-0.362,0.155-0.455,0.357  c-0.106,0.229-0.083,0.479,0.064,0.651c0.126,0.182,0.102,0.59-0.073,0.929c-0.139,0.265-0.336,0.426-0.528,0.426  c-0.026,0-0.053-0.002-0.081-0.01l-0.03-0.006H19.31c-0.235,0-0.541,0.104-0.693,0.338c-0.1,0.153-0.114,0.343-0.038,0.514  c0.094,0.253,0.083,0.54-0.033,0.732c-0.085,0.139-0.219,0.223-0.401,0.245c-0.322,0.086-0.643,0.086-0.954,0.086  c-0.923-0.083-1.905-0.172-2.852-0.343l-0.452-0.102c-0.234-0.054-0.467-0.104-0.673-0.157c-0.339-0.166-0.719-0.452-1.084-0.73  c-0.122-0.092-0.241-0.182-0.359-0.267c-0.085-0.067-0.178-0.156-0.272-0.244c-0.242-0.228-0.512-0.482-0.849-0.575  c-0.317-0.195-0.654-0.195-0.929-0.195c-0.882-0.082-1.3-0.401-1.515-1.176C7.995,21.328,7.988,20.438,8,19.667l0.002-0.174  c0.007-0.728,0.019-1.635,0.392-2.296c0.186-0.315,0.555-0.383,0.983-0.463c0.591-0.097,1.058-0.291,1.493-0.626  c0.062-0.021,0.126-0.067,0.172-0.154c0.177-0.12,0.322-0.298,0.455-0.457c0.7-0.762,1.345-1.555,1.851-2.284  c0.119-0.177,0.237-0.345,0.354-0.511c0.539-0.771,1.097-1.566,1.334-2.549C15.206,9.432,15.189,8.807,15.152,8.065z"
     id="path2987" /><g
     id="g2989" /><g
     id="g2991" /><g
     id="g2993" /><g
     id="g2995" /><g
     id="g2997" /><g
     id="g2999" /><g
     id="g3001" /><g
     id="g3003" /><g
     id="g3005" /><g
     id="g3007" /><g
     id="g3009" /><g
     id="g3011" /><g
     id="g3013" /><g
     id="g3015" /><g
     id="g3017" /><path
     style="fill:#1775a9;fill-opacity:1"
     d="m 13.706478,31.102663 c -0.411633,-0.572963 -0.550819,-0.674386 -0.925483,-0.674386 -0.248139,0 -0.657986,0.147457 -0.937208,0.337193 -0.272923,0.185456 -0.550732,0.337193 -0.617352,0.337193 -0.207709,0 -0.526384,-0.450027 -0.698828,-0.986872 C 10.290546,29.377787 9.8947927,29.232191 8.9753385,29.544724 8.5773604,29.680001 8.1585194,29.754909 8.0445807,29.711187 7.9144297,29.661243 7.802863,29.371191 7.7444606,28.930934 7.6063087,27.889494 7.3345967,27.679761 6.2710893,27.793654 5.2656943,27.901322 5.0983627,27.745184 5.2230318,26.815707 5.3407609,25.937971 5.0594186,25.622432 4.0551553,25.505874 3.0664449,25.391122 2.9289105,25.215489 3.1784556,24.386313 3.4594723,23.452565 3.1831076,22.976769 2.2594665,22.804161 1.9794678,22.751834 1.6641981,22.585984 1.5588672,22.435602 1.3885488,22.192439 1.4046893,22.08851 1.704725,21.496418 2.1479297,20.621795 2.0351023,20.277087 1.1487785,19.797898 0.78040709,19.59874 0.45829987,19.327861 0.43298472,19.195944 0.40766955,19.064028 0.5684663,18.749369 0.79031082,18.496701 1.5174034,17.668589 1.4576045,17.190743 0.54218329,16.513943 -0.00869602,16.10666 0.03279742,15.757584 0.70043915,15.182569 1.420422,14.562476 1.4544756,14.076501 0.82794675,13.362925 0.58898255,13.09076 0.41219607,12.767752 0.43508788,12.645131 0.4579797,12.522509 0.76366711,12.270504 1.1143932,12.085118 2.014697,11.60924 2.143852,11.228133 1.7009934,10.354193 1.5108096,9.9788836 1.3904376,9.5799969 1.4335,9.4677782 1.4765623,9.3555595 1.8547568,9.1550142 2.2739322,9.0221222 3.2620912,8.7088441 3.4502452,8.3747505 3.167541,7.4353957 2.9040813,6.5599858 3.1198271,6.2852736 4.0707919,6.2852736 c 0.9197342,0 1.250301,-0.3422925 1.1541754,-1.1951159 -0.112476,-0.9978851 0.036144,-1.1439507 1.0531374,-1.03504 0.7552034,0.080875 0.8870541,0.059024 1.1340137,-0.1879352 0.1557281,-0.155728 0.2794513,-0.4547087 0.2794513,-0.6753021 0,-0.5878814 0.2307267,-1.0877073 0.5024508,-1.0884645 0.1316553,-3.642e-4 0.5275473,0.1026198 0.87976,0.2288594 0.6172006,0.2212161 0.6531926,0.2199654 0.9940815,-0.034545 0.194532,-0.1452394 0.454141,-0.5359893 0.576908,-0.8683334 0.273451,-0.74026533 0.53472,-0.81168643 1.2464,-0.340719 0.788061,0.5215141 1.265202,0.4333169 1.803487,-0.33336605 0.234375,-0.33382086 0.52005,-0.62517955 0.634833,-0.64746376 0.114785,-0.02228419 0.492741,0.20532094 0.839906,0.50578919 0.347164,0.30046826 0.75026,0.54630592 0.895771,0.54630592 0.145511,0 0.52795,-0.24277881 0.849862,-0.53950847 0.321914,-0.29672965 0.654481,-0.53950846 0.739035,-0.53950846 0.08456,0 0.371762,0.30347351 0.638236,0.67438558 0.406526,0.56585545 0.553394,0.67438555 0.912606,0.67438555 0.235459,0 0.651409,-0.1517367 0.924331,-0.3371928 0.723488,-0.49162211 0.884787,-0.43945271 1.259253,0.4072823 0.421299,0.9526283 0.769999,1.1352029 1.578451,0.8264523 0.31994,-0.1221858 0.68376,-0.2221562 0.808489,-0.2221562 0.284524,0 0.506025,0.4014318 0.506025,0.9170835 0,0.2174199 0.128957,0.5592515 0.286572,0.7596256 0.272858,0.3468832 0.326419,0.3600491 1.119311,0.2751376 1.026518,-0.1099307 1.230529,0.056045 1.116241,0.9081289 -0.07393,0.5512131 0.06589,1.0187973 0.364206,1.2179918 0.08162,0.054501 0.427299,0.1000219 0.768167,0.1011578 0.832279,0.00277 1.163355,0.3385777 0.946663,0.9601817 -0.383567,1.1003031 -0.108606,1.6161423 0.966176,1.8125831 0.707154,0.1292487 0.852272,0.4544092 0.505854,1.133446 -0.51767,1.014717 -0.359933,1.42444 0.792259,2.057894 0.523705,0.287922 0.526814,0.554737 0.01328,1.139616 -0.61959,0.705674 -0.562133,1.234047 0.202316,1.860456 0.333821,0.27354 0.606947,0.562258 0.606947,0.641592 0,0.07933 -0.273126,0.389671 -0.606947,0.689637 -0.756305,0.6796 -0.803482,1.141076 -0.192439,1.882377 0.227979,0.276578 0.394374,0.607412 0.369767,0.735187 -0.02461,0.127773 -0.287003,0.365952 -0.583103,0.529286 -0.296101,0.163335 -0.614233,0.364627 -0.706961,0.447319 -0.249588,0.22257 -0.204794,0.888768 0.09992,1.486053 0.147684,0.289484 0.232687,0.619701 0.188897,0.733816 -0.07061,0.184017 -0.814604,0.479731 -1.212051,0.481754 -0.505292,0.0026 -0.735916,0.902547 -0.445078,1.736847 0.207755,0.595966 0.0086,0.781792 -0.958317,0.89401 -0.995429,0.115531 -1.15611,0.296702 -1.113443,1.255429 0.04529,1.017694 -0.08659,1.141724 -1.10166,1.036115 -1.03634,-0.107819 -1.245331,0.03983 -1.427106,1.008205 -0.0761,0.405398 -0.198473,0.7972 -0.271945,0.870671 -0.0882,0.0882 -0.38121,0.04942 -0.862368,-0.114134 -1.041082,-0.353876 -1.334601,-0.240106 -1.708616,0.662274 -0.168959,0.407644 -0.411977,0.774428 -0.540039,0.815073 -0.132012,0.0419 -0.5036,-0.09781 -0.858097,-0.322626 -0.800572,-0.507707 -1.208764,-0.420524 -1.74256,0.372184 -0.212715,0.315887 -0.471614,0.606905 -0.575333,0.646706 -0.105776,0.04059 -0.452838,-0.171221 -0.790408,-0.482382 -0.77201,-0.711613 -1.115062,-0.714403 -1.873566,-0.01524 -0.321914,0.29673 -0.648686,0.539509 -0.72616,0.539509 -0.07747,0 -0.358884,-0.303474 -0.625358,-0.674386 l -10e-7,0 z M 19.35844,28.68655 c 1.623107,-0.424982 3.848631,-1.588903 5.125615,-2.680632 2.338162,-1.998959 3.941858,-4.817983 4.393922,-7.723765 0.226599,-1.456539 0.08752,-4.258912 -0.274092,-5.522778 C 27.325657,8.2918518 23.874365,4.9238809 19.243791,3.6252507 18.055155,3.2919017 14.048092,3.2932838 12.855609,3.6274541 7.7508201,5.0579716 4.0528065,9.0922007 3.2483846,14.108146 3.0046705,15.627818 2.6426005,15.476003 6.4006923,15.4299 c 3.0816237,-0.0378 3.3195763,-0.05845 3.6754017,-0.318915 0.623602,-0.456477 2.835518,-3.29598 3.302789,-4.239889 0.392567,-0.793007 0.441748,-1.0312156 0.515174,-2.4952271 0.08882,-1.7709464 0.206125,-2.1149312 0.831507,-2.4383287 0.758366,-0.3921673 1.792616,-0.030804 2.595103,0.9067222 1.058471,1.2365853 1.311734,3.0051898 0.69148,4.8288096 -0.424693,1.248652 -0.551661,2.173843 -0.350028,2.550598 0.235247,0.439564 1.015429,0.770891 2.573717,1.093001 1.677549,0.346761 2.481836,0.77877 2.878636,1.546211 0.454602,0.879233 0.280535,2.223625 -0.356344,2.752186 -0.106548,0.08843 -0.165612,0.299453 -0.132415,0.473107 0.09827,0.514081 -0.198719,1.349917 -0.681309,1.917443 -0.257189,0.302455 -0.486873,0.747795 -0.531862,1.031246 -0.123678,0.7792 -0.504348,1.45572 -0.997712,1.773117 -0.29702,0.191081 -0.49775,0.457887 -0.585951,0.778831 -0.338549,1.231906 -1.245204,1.689385 -3.067308,1.547702 -2.940909,-0.22868 -4.151992,-0.601372 -5.495758,-1.691233 -1.11734,-0.906217 -1.4008935,-0.989531 -3.2945704,-0.968006 -0.9218248,0.01048 -1.7108559,0.05521 -1.7534025,0.0994 -0.107235,0.111385 1.5176647,1.595012 2.4178694,2.207654 1.4719995,1.001781 3.1796575,1.721342 4.9904535,2.102843 1.285547,0.27084 4.339916,0.163941 5.732277,-0.200624 l 0,0 z m -0.832506,-2.969216 c 0.08133,-0.08133 0.137734,-0.402164 0.12534,-0.712965 -0.02569,-0.644152 0.139856,-0.915316 0.558793,-0.915316 0.691232,0 1.168945,-0.817926 0.896396,-1.534782 -0.133805,-0.351932 0.138856,-0.893006 0.450008,-0.893006 0.09414,0 0.316921,-0.155159 0.495076,-0.344796 0.326049,-0.347064 0.332576,-0.398358 0.229074,-1.800383 -0.02857,-0.386938 0.02979,-0.494775 0.37073,-0.685142 0.537639,-0.300192 0.731089,-0.847709 0.466235,-1.319578 -0.301431,-0.537038 -0.922345,-0.82919 -2.380288,-1.119975 -1.617782,-0.322664 -2.415443,-0.712487 -2.916405,-1.425267 -0.581767,-0.827756 -0.599885,-1.406387 -0.09724,-3.105555 C 17.204612,10.234736 17.260026,9.5811635 16.99667,8.6405503 16.776131,7.8528624 15.973595,6.9596592 15.486401,6.9596592 l -0.339561,0 -0.06533,1.5861627 c -0.04945,1.2006735 -0.132671,1.7384061 -0.342428,2.2125971 -0.632518,1.429914 -2.951641,4.505218 -4.001037,5.305633 -0.259071,0.197602 -0.8229072,0.450597 -1.2529695,0.56221 -0.9664032,0.250809 -1.1859815,0.441104 -1.3749582,1.1916 -0.1933341,0.767799 -0.191711,3.418648 0.00257,4.190191 0.1512975,0.600856 0.7493487,1.271737 1.1336793,1.271737 0.7780651,0 1.5880811,0.341009 2.4440601,1.028922 1.234877,0.992421 1.449596,1.092752 2.836135,1.325238 2.129739,0.357101 3.693063,0.389694 3.999373,0.08338 l 0,0 z"
     id="path5404"
     inkscape:connector-curvature="0" /></svg>