<?xml version="1.0" encoding="UTF-8" standalone="no"?>
<!-- Generator: Adobe Illustrator 16.0.0, SVG Export Plug-In . SVG Version: 6.00 Build 0)  -->

<svg
   xmlns:dc="http://purl.org/dc/elements/1.1/"
   xmlns:cc="http://creativecommons.org/ns#"
   xmlns:rdf="http://www.w3.org/1999/02/22-rdf-syntax-ns#"
   xmlns:svg="http://www.w3.org/2000/svg"
   xmlns="http://www.w3.org/2000/svg"
   xmlns:sodipodi="http://sodipodi.sourceforge.net/DTD/sodipodi-0.dtd"
   xmlns:inkscape="http://www.inkscape.org/namespaces/inkscape"
   version="1.1"
   id="Layer_1"
   x="0px"
   y="0px"
   width="512px"
   height="512px"
   viewBox="0 0 512 512"
   enable-background="new 0 0 512 512"
   xml:space="preserve"
   inkscape:version="0.48.4 r9939"
   sodipodi:docname="5.svg"><metadata
     id="metadata9"><rdf:RDF><cc:Work
         rdf:about=""><dc:format>image/svg+xml</dc:format><dc:type
           rdf:resource="http://purl.org/dc/dcmitype/StillImage" /></cc:Work></rdf:RDF></metadata><defs
     id="defs7" /><sodipodi:namedview
     pagecolor="#ffffff"
     bordercolor="#666666"
     borderopacity="1"
     objecttolerance="10"
     gridtolerance="10"
     guidetolerance="10"
     inkscape:pageopacity="0"
     inkscape:pageshadow="2"
     inkscape:window-width="1313"
     inkscape:window-height="744"
     id="namedview5"
     showgrid="false"
     inkscape:zoom="0.4609375"
     inkscape:cx="-144.27119"
     inkscape:cy="256"
     inkscape:window-x="53"
     inkscape:window-y="24"
     inkscape:window-maximized="1"
     inkscape:current-layer="Layer_1" /><path
     d="M32,480h480v32H0V0h32v96h32v32H32v64h32v32H32v64h32v32H32v64h32v32H32V480z M96,336c0-26.5,21.484-48,48-48  c4.984,0,9.688,0.969,14.219,2.375l41.844-55.813C194.984,226.969,192,217.813,192,208c0-26.5,21.5-48,48-48s48,21.5,48,48  c0,5-0.969,9.688-2.391,14.219l55.797,41.844C349.031,259,358.156,256,368,256c2,0,3.875,0.344,5.813,0.594L429.5,145.25  c-8.313-8.625-13.5-20.313-13.5-33.25c0-26.5,21.5-48,48-48s48,21.5,48,48s-21.5,48-48,48c-2,0-3.875-0.344-5.813-0.594  L402.531,270.75C410.844,279.375,416,291.063,416,304c0,26.5-21.5,48-48,48s-48-21.5-48-48c0-4.969,0.969-9.688,2.375-14.219  l-55.797-41.844C258.969,253,249.828,256,240,256c-4.984,0-9.688-0.969-14.203-2.375l-41.859,55.781  C189.016,317.031,192,326.156,192,336c0,26.5-21.484,48-48,48S96,362.5,96,336z M448,112c0,8.844,7.156,16,16,16s16-7.156,16-16  s-7.156-16-16-16S448,103.156,448,112z M352,304c0,8.844,7.156,16,16,16s16-7.156,16-16s-7.156-16-16-16S352,295.156,352,304z   M224,208c0,8.844,7.156,16,16,16s16-7.156,16-16s-7.156-16-16-16S224,199.156,224,208z M128,336c0,8.844,7.156,16,16,16  s16-7.156,16-16s-7.156-16-16-16S128,327.156,128,336z"
     id="path3" /><path
     style="fill:#1775a9;fill-opacity:1;stroke-width:0.10000000000000001;stroke-miterlimit:4;stroke-dasharray:none"
     d="M 129.38604,380.23621 C 97.101841,368.52771 87.263944,327.4427 111.0491,303.65755 c 10.60828,-10.60828 20.77878,-14.43474 35.5306,-13.36767 l 12.79154,0.92524 20.93911,-28.01985 c 20.7695,-27.79288 20.91571,-28.07522 18.04898,-34.85502 -14.41493,-34.09125 10.1451,-69.06512 46.38954,-66.05945 15.17194,1.25817 27.21895,9.04886 35.3132,22.83672 5.0143,8.54143 6.07955,12.89016 6.08602,24.84511 l 0.008,14.49144 27.53897,20.71137 27.53896,20.71137 9.3424,-4.23991 c 5.13831,-2.33195 12.77435,-4.26135 16.96898,-4.28756 l 7.62661,-0.0476 28.07526,-56.28371 c 26.54379,-53.21347 27.87786,-56.50185 24.45616,-60.28278 -9.94046,-10.98409 -12.99556,-31.1372 -6.92374,-45.672679 13.13605,-31.446724 53.87405,-38.943642 77.32914,-14.230701 18.31289,19.29497 16.2445,48.42282 -4.7124,66.36113 -8.99588,7.70014 -26.71863,13.76839 -33.08103,11.3269 -1.88382,-0.72288 -12.05648,17.46956 -30.96726,55.38085 -23.9391,47.99175 -27.76294,57.0237 -25.50116,60.23427 10.9962,15.60902 13.74048,36.07036 6.62305,49.3813 -16.16938,30.23974 -55.2576,35.99703 -76.91642,11.32902 -8.81178,-10.03607 -12.32492,-21.05448 -11.16659,-35.0223 l 0.93126,-11.22972 -21.63634,-16.18816 c -11.89998,-8.90349 -24.71604,-18.41069 -28.48014,-21.12713 l -6.84382,-4.93896 -10.47825,4.63503 c -8.0896,3.57842 -12.82059,4.32431 -20.75335,3.27199 l -10.2751,-1.36304 -21.1662,28.32374 -21.1662,28.32373 3.91555,8.68313 c 7.42082,16.45646 2.94542,39.00082 -10.16887,51.22462 -12.5599,11.70708 -32.01596,16.18851 -46.87933,10.79799 l 0,0 z m 24.86114,-30.73382 c 6.53262,-4.57563 8.44564,-15.07254 3.98703,-21.87723 -10.76241,-16.42551 -35.09217,-6.06169 -30.32831,12.91904 2.77547,11.05835 16.62059,15.76684 26.34128,8.95819 l 0,0 z M 379.84662,315.4998 c 15.2592,-14.33528 -6.81132,-37.17884 -23.14334,-23.95396 -6.87121,5.56396 -7.00149,19.1304 -0.23634,24.60848 6.75521,5.47004 17.17077,5.17844 23.37968,-0.65452 z M 251.84661,220.04217 c 6.34669,-5.96241 6.62247,-16.61031 0.59769,-23.07716 -4.372,-4.69279 -7.72995,-5.6857 -16.18667,-4.7862 -13.51059,1.43704 -17.46924,21.15632 -5.99614,29.86865 5.54604,4.21149 16.0016,3.24015 21.58512,-2.00529 z m 222.76251,-95.23692 c 4.37061,-3.43792 5.7163,-6.42313 5.7163,-12.68071 0,-9.35759 -4.55276,-14.64865 -14.27829,-16.593758 -15.86466,-3.172935 -25.42935,19.141828 -12.54777,29.274468 3.14396,2.47304 7.89365,4.49644 10.55488,4.49644 2.66123,0 7.41092,-2.0234 10.55488,-4.49644 z"
     id="path2986"
     inkscape:connector-curvature="0" /><path
     style="fill:#1775a9;fill-opacity:1;stroke-width:0.1;stroke-miterlimit:4;stroke-dasharray:none"
     d="m 0.21694915,256.21695 0,-254.9152551 15.18644085,0 15.186441,0 0,47.7288131 0,47.728814 16.271186,0 16.271186,0 0,15.186438 0,15.18644 -16.271186,0 -16.271186,0 0,32.54238 0,32.54237 16.271186,0 16.271186,0 0,15.18644 0,15.18644 -16.271186,0 -16.271186,0 0,33.62712 0,33.62712 16.271186,0 16.271186,0 0,14.10169 0,14.1017 -16.271186,0 -16.271186,0 0,33.62712 0,33.62711 16.271186,0 16.271186,0 0,15.18645 0,15.18644 -16.271186,0 -16.271186,0 0,32.54237 0,32.54237 239.728809,0 239.72882,0 0,15.18644 0,15.18644 -254.91526,0 -254.91525085,0 0,-254.91525 z"
     id="path3756"
     inkscape:connector-curvature="0" /></svg>