BIOTECNOLOGIA-CUARTIL NO DEFINIDO-P.Villalobos-Modern Approaches for the Study of s Triazine Herbicide Bioremediation in Agricultural Soils,1
BIOTECNOLOGIA-Q2-M.Young-Production of Stout beer using Immobilied Yeast,1
BIOTECNOLOGIA-Q3-P.Villalobos-Isolation and Characterization of a Novel Simazine degrading Bacterium from Agricultural Soil of Central Chile  Pseudomonas sp. MHP41,1
BIOTECNOLOGIA-Q4-P.Villalobos-Novel s triazine degrading Bacteria Isolated from Agricultural Soils of Central Chile for Herbicide Bioremediation,1
ELECTRICIDAD-Q1-P.Lezana-Multicarrier PWM with DC Link Ripple Feedforward Compensation for Multilevel Inverters,1
ELECTRICIDAD-Q1-P.Lezana-Cascaded Multilevel Inverter With Regeneration Capability and Reduced Number of Switches,1
ELECTRONICA-CUARTIL NO DEFINIDO-J.Rodriguez-The Age of Multilevel Converters Arrives,1
ELECTRONICA-CUARTIL NO DEFINIDO-J.Pontt-Electromagnetic Compatibility of a DC Power Distribution System for the Atlas Liquid Argon Calorimeter,1
ELECTRONICA-CUARTIL NO DEFINIDO-R.Olivares-Electromagnetic Compatibility of a DC Power Distribution System for the Atlas Liquid Argon Calorimeter,1
ELECTRONICA-CUARTIL NO DEFINIDO-S.Kouro-The Age of Multilevel Converters Arrives,1
ELECTRONICA-Q1-C.Silva-Predictive Current Control Strategy with Imposed Load Current Spectrum,1
ELECTRONICA-Q1-M.Salgado-Performance Bounds in Linear Control of Unstable MIMO Systems with Pole Location Constraint,1
ELECTRONICA-Q1-J.Rodriguez-Current Source Converter and Cycloconverter Topologies for Industrial Medium Voltage Drives,1
ELECTRONICA-Q1-J.Rodriguez-Direct Power Control of an AFE using Predictive Control,1
ELECTRONICA-Q1-J.Rodriguez-Guest Editorial,1
ELECTRONICA-Q1-J.Rodriguez-Guest Editorial,1
ELECTRONICA-Q1-J.Rodriguez-On the Efficiency of Voltage Source and Current Source Inverters for High Power Drives,1
ELECTRONICA-Q1-J.Rodriguez-Predictive Control Algorithm Technique for Multilevel Asymmetric Cascaded H Bridge Inverters,1
ELECTRONICA-Q1-J.Rodriguez-Predictive Control in Power Electronics and Drives,1
ELECTRONICA-Q1-J.Rodriguez-Predictive Current Control of an Induction Machine Fed by a Matrix Converter with Reactive Power Control,1
ELECTRONICA-Q1-J.Rodriguez-Predictive Current Control Strategy with Imposed Load Current Spectrum,1
ELECTRONICA-Q1-J.Rodriguez-Predictive Strategy to Control Mode Voltage in Loads Fed by Matrix Converters,1
ELECTRONICA-Q1-J.Rodriguez-Multicarrier PWM with DC Link Ripple Feedforward Compensation for Multilevel Inverters,1
ELECTRONICA-Q1-J.Rodriguez-Cascaded Multilevel Inverter With Regeneration Capability and Reduced Number of Switches,1
ELECTRONICA-Q1-J.Pontt-Current Source Converter and Cycloconverter Topologies for Industrial Medium Voltage Drives,1
ELECTRONICA-Q1-J.Pontt-Guest Editorial,1
ELECTRONICA-Q1-J.Pontt-Predictive Strategy to Control Mode Voltage in Loads Fed by Matrix Converters,1
ELECTRONICA-Q1-M.Perez-A Robust Phase Locked Loop Algorithm to Synchronize Static Power Converters with Polluted AC Systems,1
ELECTRONICA-Q1-S.Kouro-Current Source Converter and Cycloconverter Topologies for Industrial Medium Voltage Drives,1
ELECTRONICA-Q1-S.Kouro-Multicarrier PWM with DC Link Ripple Feedforward Compensation for Multilevel Inverters,1
ELECTRONICA-Q1-H.Hristov-A Hybrid Fast Multipole Pseudo Spectral Time Domain Method,1
ELECTRONICA-Q1-R.Feick-A Hybrid Fast Multipole Pseudo Spectral Time Domain Method,1
ELECTRONICA-Q1-R.Feick-Measured Improvement of Indoor Coverage for Fixed Wireless Loops with Multiple Antenna Receivers,1
ELECTRONICA-Q1-R.Feick-Probability Density Function of Reliability Metrics in BICM with Arbitrary Modulation: Closed form through Algorithmic Approach,1
ELECTRONICA-Q1-P.Cortes-Direct Power Control of an AFE using Predictive Control,1
ELECTRONICA-Q1-P.Cortes-Predictive Control Algorithm Technique for Multilevel Asymmetric Cascaded H Bridge Inverters,1
ELECTRONICA-Q1-P.Cortes-Predictive Control in Power Electronics and Drives,1
ELECTRONICA-Q1-P.Cortes-Predictive Current Control Strategy with Imposed Load Current Spectrum,1
ELECTRONICA-Q2-J.Yuz-Robust Identification of Process Models from Plant Data,1
ELECTRONICA-Q2-R.Olivares-Redistribution of Pump Power and Impairments in Gain equalized Distributed Fiber Raman Amplifiers Due to Four Wave Mixing and Parametric Amplification,1
ELECTRONICA-Q2-R.Feick-BER Evaluation of BICM ID via Bonferroni Type Bounds,1
ELECTRONICA-Q3-H.Hristov-Antenna Passive Repeaters for Indoor Recovery of Microwave Cellular Signals,1
ELECTRONICA-Q3-H.Hristov-Bent Inverted F Antenna for WLAN Units,1
ELECTRONICA-Q3-H.Hristov-Wide Slot Waveguide Antenna on LTCC Technology,1
ELECTRONICA-Q3-W.Grote-Antenna Passive Repeaters for Indoor Recovery of Microwave Cellular Signals,1
ELECTRONICA-Q3-R.Feick-Antenna Passive Repeaters for Indoor Recovery of Microwave Cellular Signals,1
ELECTRONICA-Q3-R.Feick-Bent Inverted F Antenna for WLAN Units,1
ELECTRONICA-Q3-R.Feick-Wide Slot Waveguide Antenna on LTCC Technology,1
ELECTRONICA-Q3-H.Carrasco-Bent Inverted F Antenna for WLAN Units,1
ELECTRONICA-Q4-J.Rodriguez-Fault tolerant Operational of Multicell inverters with a Space Phasor Modulator,1
ELECTRONICA-Q4-W.Grote-Home Networking: Performance and Architecture Challenges,1
ELECTRONICA-Q4-W.Grote-IEEE 802.11 Goodput Analysis for Mixed Real time and Data Traffic for Home Networks,1
FISICA-Q1-P.Vargas-Electronic Density Corrugation and Crystal Azimuthal Orientation Effects on Energy Losses of Hydrogen Ions in Grazing Scattering on a Ag(110) Surface,1
FISICA-Q1-P.Vargas-Superstructures in Arrays of Rotated Graphene Layers: Electronic Structure Calculations,1
FISICA-Q1-J.Valdes-Electronic Density Corrugation and Crystal Azimuthal Orientation Effects on Energy Losses of Hydrogen Ions in Grazing Scattering on a Ag(110) Surface,1
FISICA-Q1-I.Schmidt-Azimuthal Angle Dependence of Dijet Production in Unpolarized Hadron Scattering,1
FISICA-Q1-I.Schmidt-Azimuthal Anisotropy of Direct Photons,1
FISICA-Q1-I.Schmidt-Azimuthal Asymmetry of Pions in p p and p A Collisions,1
FISICA-Q1-I.Schmidt-cos2? Asymmetries in Unpolarized Semi inclusive DIS,1
FISICA-Q1-I.Schmidt-Damping of Forward Neutrons in p p Collisions,1
FISICA-Q1-I.Schmidt-Extracting Boer Mulders Functions from p + D Drell Yan Processes,1
FISICA-Q1-I.Schmidt-Gluon Shadowing in DIS off Nuclei,1
FISICA-Q1-I.Schmidt-Heavy ion Collisions at the LHC Last Call for Predictions,1
FISICA-Q1-I.Schmidt-Jet Lag Effect and Leading Hadron Production,1
FISICA-Q1-I.Schmidt-Modular Application of an Integration by Fractional Expansion Method to Multiloop Feynman Diagrams,1
FISICA-Q1-I.Schmidt-Perturbative Fragmentation,1
FISICA-Q1-I.Schmidt-Scalar Hadrons in AdS5 X S5,1
FISICA-Q1-I.Potashnikova-Damping of Forward Neutrons in p p Collisions,1
FISICA-Q1-I.Potashnikova-Gluon Shadowing in DIS off Nuclei,1
FISICA-Q1-I.Potashnikova-Heavy ion Collisions at the LHC Last Call for Predictions,1
FISICA-Q1-I.Potashnikova-Jet Lag Effect and Leading Hadron Production,1
FISICA-Q1-I.Potashnikova-Perturbative Fragmentation,1
FISICA-Q1-M.Pacheco-Fano and Dicke effects in a Double Rashba ring System,1
FISICA-Q1-M.Pacheco-Transport Properties of Graphene Nanoribbons with Side attached Organic Molecules,1
FISICA-Q1-P.Landeros-Two magnon scattering in ultrathin ferromagnets: The case where the magnetization is out of plane,1
FISICA-Q1-S.Kovalenko-Leptoquarks: Neutrino Masses and Related Accelerator Signals,1
FISICA-Q1-S.Kovalenko-Pion Dominance in R parity Violating Supersymmetry induced Neutrinoless Double Beta Decay,1
FISICA-Q1-B.Kopeliovich-Azimuthal Anisotropy of Direct Photons,1
FISICA-Q1-B.Kopeliovich-Azimuthal Asymmetry of Pions in p p and p A Collisions,1
FISICA-Q1-B.Kopeliovich-Damping of Forward Neutrons in p p Collisions,1
FISICA-Q1-B.Kopeliovich-Gluon Shadowing in DIS off Nuclei,1
FISICA-Q1-B.Kopeliovich-Heavy ion Collisions at the LHC Last Call for Predictions,1
FISICA-Q1-B.Kopeliovich-Jet Lag Effect and Leading Hadron Production,1
FISICA-Q1-B.Kopeliovich-Perturbative Fragmentation,1
FISICA-Q1-P.Häberle-Oxigen Adsorption on Cu/ZnO(0001) Zn,1
FISICA-Q1-P.Häberle-The Synthesis of Hybrid Nanostructures of Gold Nanoparticles and Carbon Nanotubes and their Transformation to Solid Carbon Nanorods,1
FISICA-Q1-P.Gaete-A Note on Unparticle in Lower Dimensions,1
FISICA-Q1-P.Gaete-Confinement from Gluodynamics in Curved Space time,1
FISICA-Q1-P.Gaete-Un particle Effective Action,1
FISICA-Q1-C.Dib-New Signature for Color Octet Pseudoscalars at the CERN LHC,1
FISICA-Q1-G.Cvetic-Exponentially Modified QCD Coupling,1
FISICA-Q1-G.Cvetic-Further Results for the Two loop Lcc Vertex in the Landau Gauge,1
FISICA-Q1-Z.Lu-Extracting Boer Mulders Functions from p + D Drell Yan Processes,1
FISICA-Q1-Z.Barticevic-Transport Properties of Graphene Nanoribbons with Side attached Organic Molecules,1
FISICA-Q2-P.Vargas-Dynamics of Two Interacting Dipoles,1
FISICA-Q2-P.Vargas-Study of Magnetic Properties of La2/3Sr1/3MnO3 Nanotubes by Monte Carlo Simulation,1
FISICA-Q2-I.Schmidt-Azimuthal Asymmetry of Prompt Photons in Nuclear Collisions,1
FISICA-Q2-I.Schmidt-Quantum Mechanical Description of in Medium Fragmentation,1
FISICA-Q2-I.Potashnikova-Nuclear Suppression at Large Forward Rapidities in d Au Collisions at Relativistic and Ultrarelativistic Energies,1
FISICA-Q2-I.Potashnikova-Quantum Mechanical Description of in Medium Fragmentation,1
FISICA-Q2-B.Kopeliovich-Azimuthal Asymmetry of Prompt Photons in Nuclear Collisions,1
FISICA-Q2-B.Kopeliovich-Quantum Mechanical Description of in Medium Fragmentation,1
FISICA-Q2-P.Gaete-On Scale Symmetry Breaking and Confinement in D = 3 Models,1
FISICA-Q2-P.Gaete-Remarks on Confinement Driven by Axion like Particles in Yang Mills Theories,1
FISICA-Q2-A.Cortes-Magnetic Characterization of Nanowire Arrays using First Order Reversal Curves,1
FISICA-Q2-W.Brooks-A Double target System for Precision Measurements of Nuclear Medium Effects,1
FISICA-Q2-W.Brooks-Electro excitation of the Roper resonance for 1.7 < Q2 < 4.5  GeV2 in ep  > en ?+,1
FISICA-Q2-W.Brooks-Electroproduction of ?(1020) mesons at 1.4 ? Q2 ? 3.8 GeV2 measured with the CLAS spectrometer,1
FISICA-Q2-W.Brooks-First measurement of target and double spin asymmetries for e p  > ep ?0 in the nucleon resonance region above the Delta(1232),1
FISICA-Q2-O.Espinosa-The Laplace Transform of the Digamma Fuction: An Integral Due to Glasser  Manna and Oloa,1
FISICA-Q3-P.Vargas-Path Integral Study of Phase Transitions for Thermons in Macroscopic Quantum Tunneling,1
FISICA-Q3-P.Vargas-Threshold Effect in the Energy Loss of Hydrogen and Helium Ions Transmitted in Channeling Conditions in Gold Single Crystal,1
FISICA-Q3-J.Valdes-Threshold Effect in the Energy Loss of Hydrogen and Helium Ions Transmitted in Channeling Conditions in Gold Single Crystal,1
FISICA-Q3-R.Rojas-The Centre of Mass of a Triangular Plate,1
FISICA-Q3-M.Pacheco-Conductance of Armchair GNRs with Side attached Organic Molecules,1
FISICA-Q3-M.Pacheco-Electronic Properties of Nanoribbon Junctions,1
FISICA-Q3-M.Pacheco-Magneto absorption of Donor Impurities in Quantum well Wires,1
FISICA-Q3-M.Pacheco-Magnetoexciton States and Diamagnetic Shifts in GaAs Ga1 xAlxAs Quantum Dots/ultrathin Quantum Wells under Growth direction Magnetic Fields,1
FISICA-Q3-M.Pacheco-Transport Properties of Graphene Nanoribbon Heterostructures,1
FISICA-Q3-P.Häberle-Growth and Morphology of Ultra thin Ni Films on Pd(100),1
FISICA-Q3-P.Häberle-Synthesis  Characterization and Spectroscopy of Carbon based Nanoscale Materials,1
FISICA-Q3-G.Fuster-The Centre of Mass of a Triangular Plate,1
FISICA-Q3-Z.Barticevic-Conductance of Armchair GNRs with Side attached Organic Molecules,1
FISICA-Q3-Z.Barticevic-Electronic Properties of Nanoribbon Junctions,1
FISICA-Q3-Z.Barticevic-Magneto absorption of Donor Impurities in Quantum well Wires,1
FISICA-Q3-Z.Barticevic-Magnetoexciton States and Diamagnetic Shifts in GaAs Ga1 xAlxAs Quantum Dots/ultrathin Quantum Wells under Growth direction Magnetic Fields,1
FISICA-Q3-Z.Barticevic-Transport Properties of Graphene Nanoribbon Heterostructures,1
FISICA-Q4-I.Schmidt-Handedness of Direct Photons,1
FISICA-Q4-B.Kopeliovich-Handedness of Direct Photons,1
FISICA-Q4-G.Cvetic-Analytic QCD – A Short Review,1
FISICA-Q4-G.Cvetic-Gluon Self Interaction in the Position Space in Landau Gauge,1
IMM-Q2-J.Donoso-El Efecto de la Heterogeneidad de las Propiedades Mecanicas de una Union Soldada sobre la Carga de Plastificacion de Probetas de Fractura tipo C(T) y SE(B),1
IMM-Q4-J.Donoso-J Q Characterization of Constraint Effects of a Three Dimensional Cracked Specimen,1
INDUSTRIAS-CUARTIL NO DEFINIDO-D.Fuenzalida-Estructura Propietaria y Rendimientos Bursatiles en Sudamerica,1
INDUSTRIAS-CUARTIL NO DEFINIDO-D.Fuenzalida-Stock Splits en la Bolsa de Valores de Lima: ¿Afectan el Rendimiento y la Liquidez de los Titulos?,1
INDUSTRIAS-Q2-R.Munoz-Stability and Equilibrium Selection in a Link Formation Game,1
INFORMATICA-CUARTIL NO DEFINIDO-A.Zamyatnin-Fragmentomics of Proteins and Natural Oligopeptides,1
INFORMATICA-Q2-L.Salinas-A Note on Generating Functions for Hausdorff Moment Sequences,1
INFORMATICA-Q3-A.Zamyatnin-Peptidomics of Grape,1
INFORMATICA-Q3-A.Zamyatnin-Protein oligopeptide Fragmentomics,1
INFORMATICA-Q4-L.Salinas-Kernel price pattern trading,1
INFORMATICA-Q4-M.Riff-A Strip Packing Solving Method using an Incremental Move Based on Maximal Holes,1
INFORMATICA-Q4-M.Riff-An Evolutionary Navigator for Autonomous Agents on unknown Large Scale Environments,1
ING. QUIMICA-CUARTIL NO DEFINIDO-D.Navia-Prediction of the economic activity from the short and long term interest rate differential: New evidences in Chile and the United States of America cases. ,1
ING. QUIMICA-Q1-R.Simpson-Optimum Design and Operating Conditions of Multiple Effect Evaporators: Tomato Paste,1
ING. QUIMICA-Q1-R.Simpson-Variable Retort Temperature Optimization using Adaptive Random Search Techniques,1
ING. QUIMICA-Q1-S.Almonacid-Optimum Design and Operating Conditions of Multiple Effect Evaporators: Tomato Paste,1
ING. QUIMICA-Q1-A.Abakarov-Optimum Design and Operating Conditions of Multiple Effect Evaporators: Tomato Paste,1
ING. QUIMICA-Q1-A.Abakarov-Variable Retort Temperature Optimization using Adaptive Random Search Techniques,1
ING. QUIMICA-Q2-J.Yianatos-Evaluation of the Largest Flotation Cells at Minera Los Pelambres,1
ING. QUIMICA-Q2-J.Yianatos-Froth Mean Residence Time Measurement in Industrial Flotation Cells,1
ING. QUIMICA-Q2-J.Yianatos-Froth Recovery of Industrial Flotation Cells,1
ING. QUIMICA-Q2-J.Yianatos-Short Time Mixing Response in a Big Flotation Cell,1
ING. QUIMICA-Q2-R.Simpson-Enzymatic Hydrolysis of Fish Protein by products: Kinetic Analysis,1
ING. QUIMICA-Q2-R.Simpson-Impact of Overall and Particle Surface Heat Transfer Coefficients on Thermal Process Optimization in Rotary Retorts,1
ING. QUIMICA-Q2-R.Simpson-Production of Stout beer using Immobilied Yeast,1
ING. QUIMICA-Q2-P.Nunez-Removal of Arsenic from Wastewaters by Airlift Electrocoagulation. Part 1: Batch Reactor Experiments,1
ING. QUIMICA-Q2-P.Nunez-Removal of Arsenic from Wastewaters by Airlift Electrocoagulation. Part 2: Continuous Reactor Experiments,1
ING. QUIMICA-Q2-L.Guerrero-Performance Evaluation of an Anaerobic Fluidized Bed Reactor with Natural Zeolite as Support Material when Treating High strength Distillery Wastewater,1
ING. QUIMICA-Q2-L.Bergh-Froth Mean Residence Time Measurement in Industrial Flotation Cells,1
ING. QUIMICA-Q2-S.Almonacid-Enzymatic Hydrolysis of Fish Protein by products: Kinetic Analysis,1
ING. QUIMICA-Q2-S.Almonacid-Impact of Overall and Particle Surface Heat Transfer Coefficients on Thermal Process Optimization in Rotary Retorts,1
ING. QUIMICA-Q2-S.Almonacid-Production of Stout beer using Immobilied Yeast,1
ING. QUIMICA-Q2-A.Abakarov-Enzymatic Hydrolysis of Fish Protein by products: Kinetic Analysis,1
ING. QUIMICA-Q2-A.Abakarov-Impact of Overall and Particle Surface Heat Transfer Coefficients on Thermal Process Optimization in Rotary Retorts,1
ING. QUIMICA-Q3-J.Yianatos-Residence Time Distribution in Single Big Industrial Flotation Cells,1
ING. QUIMICA-Q3-R.Simpson-Technology Transfer and SMEs,1
ING. QUIMICA-Q3-A.Rojo-Electrodialytic Remediation of Suspended Mine Tailings,1
ING. QUIMICA-Q3-P.Nunez-Spent Caustic Oxidation using Electro generated Fenton’s Reagent in a Batch Reactor,1
ING. QUIMICA-Q3-L.Bergh-Residence Time Distribution in Single Big Industrial Flotation Cells,1
ING. QUIMICA-Q3-S.Almonacid-Technology Transfer and SMEs,1
ING. QUIMICA-Q4-R.Simpson-Development of Frozen Suchi: Optimization and Shelf Life Simulation,1
ING. QUIMICA-Q4-L.Guerrero-Treatment of Wastewater from Red and Tropical Fruit Wine Production by Zeolite Anaerobic Fluidized Bed Reactor,1
MATEMATICA-CUARTIL NO DEFINIDO-R.Vallejos-Assesing the Association between Two Spatial or Temporal Sequences,1
MATEMATICA-CUARTIL NO DEFINIDO-R.Vallejos-Codispersion Coefficient for Spatial and Temporal Series,1
MATEMATICA-CUARTIL NO DEFINIDO-A.Quaas-Around viscosity solutions for a class of superlinear second order elliptic differential equations. ,1
MATEMATICA-CUARTIL NO DEFINIDO-F.Osorio-Prediction of the economic activity from the short and long term interest rate differential: New evidences in Chile and the United States of America cases. ,1
MATEMATICA-CUARTIL NO DEFINIDO-A.Mercado-An inverse problem for Schrodinger equations with discontinuous main coefficient.,1
MATEMATICA-CUARTIL NO DEFINIDO-A.Mercado-Inverse problems for the Schrodinger equation via Carleman inequalities with degenerate weights.,1
MATEMATICA-CUARTIL NO DEFINIDO-L.Iturriaga-Existence and multiplicity results for the p Laplacian with a p gradient term. ,1
MATEMATICA-CUARTIL NO DEFINIDO-L.Iturriaga-A multiplicity result for the p Laplacian involving a parameter,1
MATEMATICA-CUARTIL NO DEFINIDO-L.Iturriaga-Existence and multiplicity results for some quasilinear elliptic equation with weights,1
MATEMATICA-CUARTIL NO DEFINIDO-R.Hidalgo-On the Retrosection Theorem,1
MATEMATICA-CUARTIL NO DEFINIDO-R.Hidalgo-Existence of solutions of semilinear systems in l2,1
MATEMATICA-CUARTIL NO DEFINIDO-E.Hernandez-Finite Element Approximation of the Vibration Problem for a Timoshenko Curved Rod,1
MATEMATICA-CUARTIL NO DEFINIDO-L.Briceno-An integrated behavioral model of land use and transport system : a hypernetwork equilibrium approach,1
MATEMATICA-CUARTIL NO DEFINIDO-S.Alarcon-Double spike solutions for a critical inhomogeneous elliptic problem in domains with small holes,1
MATEMATICA-Q1-A.Quaas-Principal Eigenvalues and the Dirichlet Problem for Fully Nonlinear Elliptic Operators,1
MATEMATICA-Q1-J.Peypouquet-Strong asymptotic convergence of evolution equations governed by maximal monotone operators with Tikhonov regularization,1
MATEMATICA-Q1-P.Gajardo-Minimal Time Sequential Batch Reactors with Bounded and Impulse Controls for One or more Species,1
MATEMATICA-Q2-A.Quaas-Monotonicity Properties for Ground States of the Scalar Field Equation,1
MATEMATICA-Q2-R.Hidalgo-Generalized Humbert Curves,1
MATEMATICA-Q2-R.Hidalgo-Zeros of semilinear systems Zeros of semilinear systems with applications to nonlinear partial difference equations on graphs,1
MATEMATICA-Q2-V.Gonzalez-Generalized Humbert Curves,1
MATEMATICA-Q2-V.Gonzalez-Generalized Humbert Curves,1
MATEMATICA-Q4-A.Quaas-Solvability of Monotone Systems of Fully Nonlinear Elliptic PDE’s,1
MATEMATICA-Q4-A.Mercado-Carleman inequalities and inverse problems for the Schrödinger equation.,1
MATEMATICA-Q4-J.Barrera-Cut off and Exit from Metastabaility: Two Sides of the same Coin,1
MECANICA-CUARTIL NO DEFINIDO-M.Osses-Inverse problems for the Schrodinger equation via Carleman inequalities with degenerate weights.,1
MECANICA-Q1-C.Rosales-Anomalous Scaling and Intermittency in Three dimensional Synthetic Turbulence,1
MECANICA-Q1-F.Labbe-Cosine Error Influence on Ground based Spectral UV Irradiance Measurements,1
MECANICA-Q1-F.Labbe-Uncertainty Evaluation of Spectral UV Irradiance Measurements,1
MECANICA-Q1-F.Labbe-Uncertainty of Experimental Integrals: Application to the UV index Calculation,1
MECANICA-Q1-L.DaSilva-Uncertainty Evaluation of Spectral UV Irradiance Measurements,1
MECANICA-Q2-F.Perazzo-Adaptive Methodology for Meshless Finite Point Method,1
MECANICA-Q2-F.Labbe-El Efecto de la Heterogeneidad de las Propiedades Mecanicas de una Union Soldada sobre la Carga de Plastificacion de Probetas de Fractura tipo C(T) y SE(B),1
MECANICA-Q2-F.Labbe-Strain Maps obtained by Phase shifting Interferometry: An Uncertainty Analysis,1
MECANICA-Q4-M.Osses-Carleman inequalities and inverse problems for the Schrödinger equation.,1
MECANICA-Q4-F.Labbe-J Q Characterization of Constraint Effects of a Three Dimensional Cracked Specimen,1
O.CIVILES-Q1-H.Jensen-A Computational Procedure for Response Statistics based Optimization of Stochastic Non linear FE models,1
O.CIVILES-Q1-H.Jensen-An Efficient Realibility based Optimization Scheme for Uncertain Linear Systems Subject to General Gaussian Excitation,1
O.CIVILES-Q1-H.Jensen-Computational Methods in Optimization Considering Uncertainties – An Overview,1
O.CIVILES-Q1-P.Catalan-Beach Wizard: Nearshore Bathymetry Estimation through Assimilation of Model Computations and Remote Observations,1
O.CIVILES-Q1-P.Catalan-Discusion of “A Simple Method to Determine Breaker Height and Depth for Different Deepwater Wave Height length Ratios and Sea Floor Slopes”,1
O.CIVILES-Q1-P.Catalan-Remote Sensing of Breaking Wave Phase Speeds with Application to Non linear Depth Inversions,1
O.CIVILES-Q1-P.Catalan-Response to Reply by J.P. Le Roux,1
O.CIVILES-Q3-R.Delgadillo-Effects of Temperature and Pressure on Hot Mixed Asphalt Compaction: Field and Laboratory Study,1
O.CIVILES-Q4-G.Garcia-Stain and Pulse Duration Considerations for Extended Life Hot Mix Asphalt Pavement Design,1
QUIMICA-CUARTIL NO DEFINIDO-M.Seeger-Modern Approaches for the Study of s Triazine Herbicide Bioremediation in Agricultural Soils,1
QUIMICA-CUARTIL NO DEFINIDO-J.Garbarino-Solidago chilensis Meyen et Kageneckia oblonga Ruiz & Pav.: Petite revue de leur profil antioxydant,1
QUIMICA-Q2-M.Seeger-Bacterial Metabolism of Polychlorinated Biphenyls,1
QUIMICA-Q2-M.Seeger-Highlights of Latin American Microbiology: the 19th ALAM Congress ,1
QUIMICA-Q2-M.Piovano-Lichen Metabolites prevent UV Light and Nitric Oxide mediated Plasmid DNA Damage and Induce Apoptosis in Human Melanoma Cells,1
QUIMICA-Q2-M.Piovano-Pro apoptotic Activity of Ergosterol Derivatives in Human Prostate Cancer Cells,1
QUIMICA-Q2-C.Gonzalez-Evaluation of Bit Error Rate for Packet Combining with Constellation Rearrangement,1
QUIMICA-Q2-L.Espinoza-Eugenol and its Synthetic Analogues Inhibit Cell Growth of Human Cancer Cells (Part I),1
QUIMICA-Q2-L.Espinoza-Pro apoptotic Activity of Ergosterol Derivatives in Human Prostate Cancer Cells,1
QUIMICA-Q2-K.Catalan-Eugenol and its Synthetic Analogues Inhibit Cell Growth of Human Cancer Cells (Part I),1
QUIMICA-Q2-A.Aizman-Proton Transport Catalysis in Intramolecular Rearrangements: A Density Functional Theory Study,1
QUIMICA-Q2-A.Aizman-Two State Reactivity Mechanism for the Rearrangement of Hydrogen Peroxynitrite to Nitric Acid,1
QUIMICA-Q2-J.Garbarino-Lichen Metabolites prevent UV Light and Nitric Oxide mediated Plasmid DNA Damage and Induce Apoptosis in Human Melanoma Cells,1
QUIMICA-Q2-J.Garbarino-Pro apoptotic Activity of Ergosterol Derivatives in Human Prostate Cancer Cells,1
QUIMICA-Q3-M.Seeger-Isolation and Characterization of a Novel Simazine degrading Bacterium from Agricultural Soil of Central Chile  Pseudomonas sp. MHP41,1
QUIMICA-Q3-J.Garbarino-Potential Anticancer Activity against Human Epithelial Cancer Cells of Peumus buldus Leaf Extract,1
QUIMICA-Q4-M.Seeger-Novel s triazine degrading Bacteria Isolated from Agricultural Soils of Central Chile for Herbicide Bioremediation,1
QUIMICA-Q4-M.Seeger-Polycyclic Aromatic Hydrocarbons and Polychlorinated Biphenyls in Coastal Environments of Valdivia and Valparaiso  Chile,1
QUIMICA-Q4-L.Espinoza-Phenolics  Depsides and Triterpenes from the Chilean Lichen Pseudocyphellaria nudata (Zahlbr.) D.J. Galloway,1
SIN DEFINIR-CUARTIL NO DEFINIDO-I.Szanto-Coexistence of algebraic and nonalgebraic limit cycles in Kukles systems,1
SIN DEFINIR-CUARTIL NO DEFINIDO-J.Saez-Coexistence of algebraic and nonalgebraic limit cycles in Kukles systems,1
SIN DEFINIR-Q4-I.Szanto-Limit cycles and invariant parabola in a Kukles systems of degree three,1
