ARQUITECTURA-CUARTIL NO DEFINIDO-R.Mora-Las Autopistas Urbanas Concesionadas. Una Nueva forma de Segregacion ,1
BIOTECNOLOGIA-CUARTIL NO DEFINIDO-E.Sanchez-Involvement of Jasmonic Acid and Derivatives in Plant Responses to Pathogens and Insects and in Fruit Ripening ,1
BIOTECNOLOGIA-CUARTIL NO DEFINIDO-I.Ramirez-Involvement of Jasmonic Acid and Derivatives in Plant Responses to Pathogens and Insects and in Fruit Ripening ,1
BIOTECNOLOGIA-CUARTIL NO DEFINIDO-M.Young-Development of a Bioanalytical System for the Measurement of Polyphenols in Grapes,1
ELECTRICIDAD-CUARTIL NO DEFINIDO-H.Pulgar-Short term Generation Scheduling under a SO2 Emissions Allowances Market ,1
ELECTRICIDAD-CUARTIL NO DEFINIDO-J.Juliet-Sensorless Acquisition of the Rotor Position Angle of Induction Motors with Arbitrary Stator Windings ,1
ELECTRONICA-CUARTIL NO DEFINIDO-C.Silva-Large Current Rectifiers: State of the Art and Future Trends,1
ELECTRONICA-CUARTIL NO DEFINIDO-M.Salgado-Parametrizacion Alternativa de Youla ,1
ELECTRONICA-CUARTIL NO DEFINIDO-M.Salgado-Performance Bounds for Feedback Control of Non minimum Phase MIMO Sistems with Arbitrary Delay Structure ,1
ELECTRONICA-CUARTIL NO DEFINIDO-M.Salgado-Time domain Performance Limitations Arising from Decentralized Architectures and their Relationship to the RGA ,1
ELECTRONICA-CUARTIL NO DEFINIDO-J.Rodriguez-High power Regenerative Converter for Ore Transportation under Failure Conditions,1
ELECTRONICA-CUARTIL NO DEFINIDO-J.Rodriguez-Large Current Rectifiers: State of the Art and Future Trends,1
ELECTRONICA-CUARTIL NO DEFINIDO-J.Rodriguez-Matrix Converter Controlled with the Direct Transfer Function Approach: Analysis  Modelling and Simulation ,1
ELECTRONICA-CUARTIL NO DEFINIDO-J.Rodriguez-Operation of a Medium voltage Drive under Faulty Conditions ,1
ELECTRONICA-CUARTIL NO DEFINIDO-J.Rodriguez-PWM Regenerative Rectifiers: State of the Art ,1
ELECTRONICA-CUARTIL NO DEFINIDO-J.Rodriguez-Reactive Power Compensation Technologies: State of the Art Review,1
ELECTRONICA-CUARTIL NO DEFINIDO-J.Rodriguez-Regenerative Medium Voltage AC Drive Based on a Multicell Arrangement with Reduced Energy Storage Requirements ,1
ELECTRONICA-CUARTIL NO DEFINIDO-J.Rodriguez-Resonances in a High Power Active Front End Rectifier System,1
ELECTRONICA-CUARTIL NO DEFINIDO-J.Rodriguez-Special Section on Modern Rectifiers   Part I  Guest Editorial,1
ELECTRONICA-CUARTIL NO DEFINIDO-J.Rodriguez-Special Section on Modern Rectifiers   Part II  Guest Editorial,1
ELECTRONICA-CUARTIL NO DEFINIDO-J.Rodriguez-Special Section on Modern Rectifiers   Part III  Guest Editorial,1
ELECTRONICA-CUARTIL NO DEFINIDO-J.Rodriguez-Technical Evaluation and Practical Experience of High Power Grinding Mill Drives in Mining Applications,1
ELECTRONICA-CUARTIL NO DEFINIDO-J.Pontt-High power Regenerative Converter for Ore Transportation under Failure Conditions,1
ELECTRONICA-CUARTIL NO DEFINIDO-J.Pontt-Large Current Rectifiers: State of the Art and Future Trends,1
ELECTRONICA-CUARTIL NO DEFINIDO-J.Pontt-Matrix Converter Controlled with the Direct Transfer Function Approach: Analysis  Modelling and Simulation ,1
ELECTRONICA-CUARTIL NO DEFINIDO-J.Pontt-Operation of a Medium voltage Drive under Faulty Conditions ,1
ELECTRONICA-CUARTIL NO DEFINIDO-J.Pontt-PWM Regenerative Rectifiers: State of the Art ,1
ELECTRONICA-CUARTIL NO DEFINIDO-J.Pontt-Resonances in a High Power Active Front End Rectifier System,1
ELECTRONICA-CUARTIL NO DEFINIDO-J.Pontt-Technical Evaluation and Practical Experience of High Power Grinding Mill Drives in Mining Applications,1
ELECTRONICA-CUARTIL NO DEFINIDO-R.Olivares-Propagacion de Pulsos Solitonicos en Redes Opticas WDM,1
ELECTRONICA-CUARTIL NO DEFINIDO-H.Hristov-Curvilinear Fresnel Zone Plate Lens Antenna: Vector Radiation Theory,1
ELECTRONICA-CUARTIL NO DEFINIDO-H.Hristov-Focusing Characteristics of Curvilinear Half open Fresnel Zone Plate Lenses: Plane Wave Illumination ,1
ELECTRONICA-CUARTIL NO DEFINIDO-C.Hermosilla-Performance Evaluation of Linear Turbo Receivers using Analytical Extrinsic Information Transfer Functions,1
ELECTRONICA-CUARTIL NO DEFINIDO-W.Grote-Analisis de Planeamiento de Protocolos CAN con Calidad de Servcio,1
ELECTRONICA-CUARTIL NO DEFINIDO-W.Grote-Analisis Experimental de un Ambiente WI FI Multicelda,1
ELECTRONICA-CUARTIL NO DEFINIDO-W.Grote-Evaluacion de Enlaces Inalambricos Urbanos usando Protocolo IEEE 802.11b,1
ELECTRONICA-CUARTIL NO DEFINIDO-A.Gonzalez-Estudio y Configuracion de Calidad de Servicio para Protocolos Ipv4 e Ipv6 en una Red de Fibra Optica ,1
ELECTRONICA-CUARTIL NO DEFINIDO-R.Feick-Curvilinear Fresnel Zone Plate Lens Antenna: Vector Radiation Theory,1
ELECTRONICA-CUARTIL NO DEFINIDO-R.Feick-Focusing Characteristics of Curvilinear Half open Fresnel Zone Plate Lenses: Plane Wave Illumination ,1
ELECTRONICA-CUARTIL NO DEFINIDO-R.Feick-Measurement and Characterization of the Temporal Behavior of Fixed Wireless Links ,1
ELECTRONICA-CUARTIL NO DEFINIDO-R.Feick-Medicion de Ancho de Banda de Coherencia y Dispersion Temporal en la Banda de 2.4 GHz en Ambientes Interiores,1
ELECTRONICA-CUARTIL NO DEFINIDO-H.Carrasco-Medicion de Ancho de Banda de Coherencia y Dispersion Temporal en la Banda de 2.4 GHz en Ambientes Interiores,1
ELECTRONICA-CUARTIL NO DEFINIDO-T.Arredondo-Fuzzy Atributes of a DNA Complex: Development of a Fuzzy Inference Engine for Codon “Junk” Codon Delineation ,1
ELECTRONICA-CUARTIL NO DEFINIDO-J.Glaria-An Introductory Model of a One piston Engine,1
ELECTRONICA-CUARTIL NO DEFINIDO-J.Glaria-On Gas Dynamics inside a Varying Volume Cylinder,1
FISICA-CUARTIL NO DEFINIDO-A.Zerwekh-Study of a Neutrino Mass Texture Generated in Supergravity with Bilinear R parity Violation,1
FISICA-CUARTIL NO DEFINIDO-P.Vargas-Inverse Photoemission Spectroscopy of Al(100) ,1
FISICA-CUARTIL NO DEFINIDO-P.Vargas-Recombination of H2+ molecules in channeling conditions,1
FISICA-CUARTIL NO DEFINIDO-P.Vargas-Scaling Relations for Magnetic Nanoparticles ,1
FISICA-CUARTIL NO DEFINIDO-J.Valdes-Angular Dispersion of protons passing through thin metallic films ,1
FISICA-CUARTIL NO DEFINIDO-J.Valdes-On the extraction of neutralisation information from low energy ion scattering spectra,1
FISICA-CUARTIL NO DEFINIDO-J.Valdes-Recombination of H2+ molecules in channeling conditions,1
FISICA-CUARTIL NO DEFINIDO-I.Schmidt-Breakdown of QCD Factorization at Large Feynman x ,1
FISICA-CUARTIL NO DEFINIDO-I.Schmidt-Collins Effect in Single Spin Asymmetries of the p­p  > phiX Process,1
FISICA-CUARTIL NO DEFINIDO-I.Schmidt-Large Rapidity Gap Reactions on Nuclei: Breakdown of QCD Factorization,1
FISICA-CUARTIL NO DEFINIDO-I.Schmidt-Recursive Method to obtain the Parametric Representation of a Generic Feynman Diagram,1
FISICA-CUARTIL NO DEFINIDO-I.Schmidt-Scalar Meson Mediated Nuclear mu    e  Conversion ,1
FISICA-CUARTIL NO DEFINIDO-I.Schmidt-Transverse Single Spin Asymmetries in Photon Production ,1
FISICA-CUARTIL NO DEFINIDO-R.Rojas-Local Electric Field Enhancement Near Arrays of Polarizable Cylindrical Tubes,1
FISICA-CUARTIL NO DEFINIDO-I.Potashnikova-Breakdown of QCD Factorization at Large Feynman x ,1
FISICA-CUARTIL NO DEFINIDO-M.Pacheco-Electric Field Effects on the Energy Spectrum of Carbon Nanotubes,1
FISICA-CUARTIL NO DEFINIDO-M.Pacheco-Electron hole Transition in Self Assembled InAs/GaAs Quantum Dots: Effects of Applied Magnetic Fields and Hydrostatic Pressure ,1
FISICA-CUARTIL NO DEFINIDO-M.Pacheco-Electronic Spectrum of a Two dimensional Quantum dot Array in the Presence of Electric and Magnetic Fields in the Hall Configuration ,1
FISICA-CUARTIL NO DEFINIDO-M.Pacheco-Persistent Current Magnification in a Double Quantum ring System ,1
FISICA-CUARTIL NO DEFINIDO-S.Kovalenko-Hadronic Structure Aspects of K+  > phi  + l1+ +l2+ decays ,1
FISICA-CUARTIL NO DEFINIDO-S.Kovalenko-Neutrino Accompanied b±b±b+  /EC and EC/EC Processes within Single State Dominance Hypothesis ,1
FISICA-CUARTIL NO DEFINIDO-S.Kovalenko-Scalar Meson Mediated Nuclear mu    e  Conversion ,1
FISICA-CUARTIL NO DEFINIDO-S.Kovalenko-Sterile Neutrinos in Neutrinoless Double Beta Decay ,1
FISICA-CUARTIL NO DEFINIDO-B.Kopeliovich-Breakdown of QCD Factorization at Large Feynman x ,1
FISICA-CUARTIL NO DEFINIDO-B.Kopeliovich-Overview of Theoretical Presentations at Diffraction 2004 ,1
FISICA-CUARTIL NO DEFINIDO-B.Kopeliovich-PCAC and Shadowing of Low Energy Neutrinos ,1
FISICA-CUARTIL NO DEFINIDO-B.Kopeliovich-Time Evolution of Hadronization and Grey Tracks in DIS off Nuclei ,1
FISICA-CUARTIL NO DEFINIDO-P.Häberle-Inverse Photoemission Spectroscopy of Al(100) ,1
FISICA-CUARTIL NO DEFINIDO-P.Häberle-Resonant Tunneling in a Quantum Step: Inverse Photoemission Spectroscopy of Ag/Al(100) ,1
FISICA-CUARTIL NO DEFINIDO-P.Häberle-Thermal Effects in the Size Distribution of SiC Nanodots on Si(111) ,1
FISICA-CUARTIL NO DEFINIDO-P.Gaete-Confinement in the Presence of External Fields and Axions ,1
FISICA-CUARTIL NO DEFINIDO-P.Gaete-Duality and Confinement in D=3 Models Driven by Condenstion of Topological Defects ,1
FISICA-CUARTIL NO DEFINIDO-P.Gaete-Fractional Statistics and Confinement ,1
FISICA-CUARTIL NO DEFINIDO-C.Dib-Muonium antimuonium Conversion in Models eith Heavy Neutrinos ,1
FISICA-CUARTIL NO DEFINIDO-C.Dib-Neutrino Emission Rates in Highly Magnetized Neutron Stars Revisited ,1
FISICA-CUARTIL NO DEFINIDO-G.Cvetic-Muonium antimuonium Conversion in Models eith Heavy Neutrinos ,1
FISICA-CUARTIL NO DEFINIDO-Z.Barticevic-Electric Field Effects on the Energy Spectrum of Carbon Nanotubes,1
FISICA-CUARTIL NO DEFINIDO-Z.Barticevic-Electron hole Transition in Self Assembled InAs/GaAs Quantum Dots: Effects of Applied Magnetic Fields and Hydrostatic Pressure ,1
FISICA-CUARTIL NO DEFINIDO-Z.Barticevic-Electronic Spectrum of a Two dimensional Quantum dot Array in the Presence of Electric and Magnetic Fields in the Hall Configuration ,1
FISICA-CUARTIL NO DEFINIDO-Z.Barticevic-Rabi Oscillations in Two level Semiconductor Systems ,1
FISICA-CUARTIL NO DEFINIDO-O.Espinosa-Neutrino Emission Rates in Highly Magnetized Neutron Stars Revisited ,1
FISICA-CUARTIL NO DEFINIDO-O.Espinosa-Thermal operator representation for Matsubara sums ,1
FISICA-CUARTIL NO DEFINIDO-O.Espinosa-Thermal Operator Representation of Finite Temperature Graphs,1
IMM-CUARTIL NO DEFINIDO-J.Donoso-A J integral Estimation Method for C(T) Specimens using the Common Format Equation ,1
IMM-CUARTIL NO DEFINIDO-J.Donoso-Una Nueva Metodologia para la Evaluacion de la Curva J R,1
INFORMATICA-CUARTIL NO DEFINIDO-L.Salinas-On a Conjecture of S.P. Robinson ,1
INFORMATICA-CUARTIL NO DEFINIDO-L.Salinas-On Convex Univalent Functions with Convex Univalent Derivatives ,1
INFORMATICA-CUARTIL NO DEFINIDO-L.Salinas-On the DCP Property of Exponential Partial Sums ,1
INFORMATICA-CUARTIL NO DEFINIDO-M.Riff-An On the fly Evolutionary Algorithm for Robot Motion Planning ,1
INFORMATICA-CUARTIL NO DEFINIDO-M.Riff-Hybridization of Genetic Algorithms and Constraint Propagation for the BACP,1
INFORMATICA-CUARTIL NO DEFINIDO-M.Riff-Miner Ants Colony: A New Approach to Solve a Mine Planning Problem ,1
INFORMATICA-CUARTIL NO DEFINIDO-M.Riff-Using Self adaptable Probes for Dynamic Parameter Control of Parallel Evolutionary Algorithms,1
INFORMATICA-CUARTIL NO DEFINIDO-C.Castro-An Approach for Dynamic Split Strategies in Constraint Solving ,1
INFORMATICA-CUARTIL NO DEFINIDO-C.Castro-Hybridization of Genetic Algorithms and Constraint Propagation for the BACP,1
INFORMATICA-CUARTIL NO DEFINIDO-X.Bonnaire-Miner Ants Colony: A New Approach to Solve a Mine Planning Problem ,1
INFORMATICA-CUARTIL NO DEFINIDO-X.Bonnaire-Using Self adaptable Probes for Dynamic Parameter Control of Parallel Evolutionary Algorithms,1
INFORMATICA-CUARTIL NO DEFINIDO-H.Astudillo-MASPEGHI 2004 Mechanisms for Specialization  Generalization and Inheritance ,1
INFORMATICA-CUARTIL NO DEFINIDO-H.Astudillo-Open Issues in Industrial Use Case Modeling,1
INFORMATICA-CUARTIL NO DEFINIDO-H.Allende-Edge Detection in Contaminated Images using Cluster Analysis ,1
INFORMATICA-CUARTIL NO DEFINIDO-H.Allende-Flexible Architecture of Self Organizing Maps for Changing Environments ,1
INFORMATICA-CUARTIL NO DEFINIDO-H.Allende-K Dynamical Self Organizing Maps ,1
INFORMATICA-CUARTIL NO DEFINIDO-H.Allende-Moderated Innovations in Self poised Ensemble Learning ,1
INFORMATICA-CUARTIL NO DEFINIDO-H.Allende-Modular Neural Network applied to Non Stationary Time Series ,1
INFORMATICA-CUARTIL NO DEFINIDO-H.Allende-Multiresolution Fuzzy Rule Systems,1
INFORMATICA-CUARTIL NO DEFINIDO-H.Allende-Robust Growing Hierarchical Self Organizing Map,1
INFORMATICA-CUARTIL NO DEFINIDO-H.Allende-Self poised Ensemble Learning ,1
INFORMATICA-CUARTIL NO DEFINIDO-E.Monfroy-Hybrid CSP Solving,1
ING. QUIMICA-CUARTIL NO DEFINIDO-J.Yianatos-Collection Zone Kinetic Model for Industrial Flotation Columns ,1
ING. QUIMICA-CUARTIL NO DEFINIDO-J.Yianatos-Mixing Characteristics of Industrial Flotation Equipment ,1
ING. QUIMICA-CUARTIL NO DEFINIDO-J.Yianatos-Multivariate Projection Methods applied to Flotation Columns ,1
ING. QUIMICA-CUARTIL NO DEFINIDO-J.Yianatos-Speciation and Leachability of Copper in Mine Tailings from Porphyry Copper Minig: Influence of Particle Size ,1
ING. QUIMICA-CUARTIL NO DEFINIDO-J.Yianatos-The Effect of Fines Recycling on Industrial Grinding Performance ,1
ING. QUIMICA-CUARTIL NO DEFINIDO-R.Simpson-A New Methodology for the Optical Design of Batch Fermentation Plants ,1
ING. QUIMICA-CUARTIL NO DEFINIDO-R.Simpson-Flow and Viscoelastic Properties of Pressurized Avocado Puree,1
ING. QUIMICA-CUARTIL NO DEFINIDO-R.Simpson-Generation of Isolethal Processes and Implementation of Simultaneous Sterilisation utilising the Revisited General Method ,1
ING. QUIMICA-CUARTIL NO DEFINIDO-R.Simpson-Modelling and Simulation of an Industrial Multiple effect Evaporator: Tomato Concentrate ,1
ING. QUIMICA-CUARTIL NO DEFINIDO-R.Simpson-Prologue ,1
ING. QUIMICA-CUARTIL NO DEFINIDO-A.Rojo-Electrodialytic Remediation of Copper Mine Tailings ,1
ING. QUIMICA-CUARTIL NO DEFINIDO-A.Rojo-Electrodialytic Remediation of Copper Mine Tailings: Sulphuric and Citric Acid Addition ,1
ING. QUIMICA-CUARTIL NO DEFINIDO-L.Guerrero-Effect of Particle Size and Doses of Zeolite Addition on Anaerobic Digestion Processes of Synthetic and Piggery Wastes ,1
ING. QUIMICA-CUARTIL NO DEFINIDO-J.delaFuente-Contributions to Supercritical Extraction of Vegetable Substrates in Latin America,1
ING. QUIMICA-CUARTIL NO DEFINIDO-J.delaFuente-Measurement and Modeling of Solubilities of Capsaicin in High pressure CO2,1
ING. QUIMICA-CUARTIL NO DEFINIDO-J.delaFuente-Natural Convection Retards Supercritical CO2 Extraction of Essential Oils and Lipids From Vegetable Substrates,1
ING. QUIMICA-CUARTIL NO DEFINIDO-J.delaFuente-Solubility of Boldo Leaf Antioxidant Components (Boldine) in High pressure Carbon Dioxide,1
ING. QUIMICA-CUARTIL NO DEFINIDO-L.Bergh-Control Strategy for a Teniente Converter ,1
ING. QUIMICA-CUARTIL NO DEFINIDO-L.Bergh-Mixing Characteristics of Industrial Flotation Equipment ,1
ING. QUIMICA-CUARTIL NO DEFINIDO-L.Bergh-Multivariate Projection Methods applied to Flotation Columns ,1
ING. QUIMICA-CUARTIL NO DEFINIDO-S.Almonacid-Rethinking Technology Transfer ,1
MATEMATICA-CUARTIL NO DEFINIDO-E.Tuma-Shilnikov Type Solutions Under Strong Non Autonomous Perturbation ,1
MATEMATICA-CUARTIL NO DEFINIDO-A.Quaas-Nonlinear Eigenvalues and Bifurcation Problems for Pucci’s Operators ,1
MATEMATICA-CUARTIL NO DEFINIDO-A.Quaas-Some Recent Results on Equation Involving the PuccisExtremal Operators,1
MATEMATICA-CUARTIL NO DEFINIDO-R.Hidalgo-Numerical Schottky Uniformizations,1
MATEMATICA-CUARTIL NO DEFINIDO-R.Hidalgo-Automorphisms groups of Schottky type,1
MATEMATICA-CUARTIL NO DEFINIDO-R.Hidalgo-Schottky uniformizations on genus 3 and 4 reflecting S4 as group of conformal automorphisms.,1
MATEMATICA-CUARTIL NO DEFINIDO-R.Hidalgo-Schottky uniformizations of Z22 actions on Riemann surfaces,1
MATEMATICA-CUARTIL NO DEFINIDO-R.Hidalgo-On Klein Schottky groups,1
MATEMATICA-CUARTIL NO DEFINIDO-R.Hidalgo-Torsion free commutator subgroups of generalized Coxeter groups.,1
MATEMATICA-CUARTIL NO DEFINIDO-R.Hidalgo-Real Schottky parametrizations,1
MATEMATICA-CUARTIL NO DEFINIDO-V.Gonzalez-On the 0 dimensional Irreducible Components of the Singular Locus of Ag ,1
MATEMATICA-CUARTIL NO DEFINIDO-P.Gajardo-Inner estimation of the eigenvalue set and exponential series solutions to differential inclusions,1
MATEMATICA-CUARTIL NO DEFINIDO-J.Figueroa-Numerical Schottky Uniformizations,1
MATEMATICA-CUARTIL NO DEFINIDO-J.Figueroa-Numerical Schottky Uniformizations,1
MATEMATICA-CUARTIL NO DEFINIDO-I.Markina-On Value Distribution for Quasimeromorphic Mappings on Polarizable Carnot Groups ,1
MECANICA-CUARTIL NO DEFINIDO-F.Labbe-Evaluation of the Uncertainty Associated with a Phase difference Map Measured only once by the Phase shifting Technique ,1
MECANICA-CUARTIL NO DEFINIDO-F.Labbe-Measuring Displacement Derivatives by Electronic Speckle Pattern Shearing Interferometry (ESPSI) ,1
MECANICA-CUARTIL NO DEFINIDO-F.Labbe-Monitoring the Plastic Deformation Progression of a Specimen undergoing Tensile Deformation by Moire Interferometry ,1
MECANICA-CUARTIL NO DEFINIDO-F.Labbe-Uncertainty Evaluation of Displacement Gradients Measured by Electronic Speckle Pattern Shearing Interferometry (ESPSI) ,1
MECANICA-CUARTIL NO DEFINIDO-F.Labbe-Uncertainty Evaluation of Out of plane Displacements Measured by Electronic Speckle pattern Interferometry (ESPI) ,1
MECANICA-CUARTIL NO DEFINIDO-P.Roth-Revisiting the Problem of the Evaluation of the Uncertainty Associated with a Single Measurement ,1
MECANICA-CUARTIL NO DEFINIDO-P.Roth-Two Methods to Evaluate the Uncertainty of Derivatives Calculated from Polynomials Fitted to Experimental Data ,1
MECANICA-CUARTIL NO DEFINIDO-P.Roth-Climatology of Surface Ultraviolet radiation in Valparaiso  Chile,1
MECANICA-CUARTIL NO DEFINIDO-P.Roth-Economic Growth or Environmental Protection? The False Dilemma of the Latin American Countries ,1
MECANICA-CUARTIL NO DEFINIDO-L.DaSilva-Mollow Ivey Relation for Absorption and Emission ,1
MECANICA-CUARTIL NO DEFINIDO-L.DaSilva-Climatology of Surface Ultraviolet radiation in Valparaiso  Chile,1
MECANICA-CUARTIL NO DEFINIDO-L.DaSilva-Economic Growth or Environmental Protection? The False Dilemma of the Latin American Countries ,1
O.CIVILES-CUARTIL NO DEFINIDO-H.Jensen-Design and Sensitivity Analysis of Dynamical Systems Subjected to Stochastic Loading,1
O.CIVILES-CUARTIL NO DEFINIDO-H.Jensen-Structural Optimization of Linear Dynamical Systems under Stochastic Excitation: A Moving Reliability Database Approach,1
O.CIVILES-CUARTIL NO DEFINIDO-C.Aguirre-Seismic Behavior of Rack Structures ,1
QUIMICA-CUARTIL NO DEFINIDO-M.Seeger-A Lux like Quorum Sensing System in the Extreme Acidophile Acidithiobacillus ferrooxidans ,1
QUIMICA-CUARTIL NO DEFINIDO-P.Reveco-The Sintesis of Methoxymethyl Derivatives of Boldine: Versatile Protected Precursors of Substituted Boldine Derivatives ,1
QUIMICA-CUARTIL NO DEFINIDO-M.Piovano-Studies on Chilean Fungi III. Free and Bound Sterols of Mycena chlorinella (Basidiomycetes) ,1
QUIMICA-CUARTIL NO DEFINIDO-M.Ollino-Photocatalytic Degradation of Surfactants with Immobilized TIO2: Comparing Two Reaction Systems ,1
QUIMICA-CUARTIL NO DEFINIDO-F.Cereceda-An Urban Photochemistry Study in Santiago de Chile ,1
QUIMICA-CUARTIL NO DEFINIDO-A.Aizman-A Theoretical Study on the Reaction Mechanism for the Bergman Cyclization from the Perspective of the Electron Localization Function and Catastrophe Theory,1
QUIMICA-CUARTIL NO DEFINIDO-A.Aizman-An Aromaticity Scale on the Topological Analysis of the Electron Localization Function Including Sigma and Pi Contributions ,1
QUIMICA-CUARTIL NO DEFINIDO-A.Aizman-Relationship between Local Electrophilicity and Rate Coefficients for the Hydrolysis of Carbenium Ions ,1
QUIMICA-CUARTIL NO DEFINIDO-H.Pena-Involvement of Jasmonic Acid and Derivatives in Plant Responses to Pathogens and Insects and in Fruit Ripening ,1
QUIMICA-CUARTIL NO DEFINIDO-J.Garbarino-Antioxidant Activity and Antiproliferative Action of Methanolic Extract of Geum quellyon Sweet Roots in Human Tumor Cell Lines,1
QUIMICA-CUARTIL NO DEFINIDO-J.Garbarino-Studies on Chilean Fungi III. Free and Bound Sterols of Mycena chlorinella (Basidiomycetes) ,1
SIN DEFINIR-CUARTIL NO DEFINIDO-I.Szanto-Topological description of a non differentiable bioeconomics model. ,1
SIN DEFINIR-CUARTIL NO DEFINIDO-I.Szanto-Velcro bifurcation in competition models with generalized Holling functional response,1
