ARQUITECTURA-CUARTIL NO DEFINIDO-R.Mora-Moviendose con la Mente y el Cuerpo: Entendiendo la Diferencia entre Planear y realizar Rutas en el Espacio Construido,1
ARQUITECTURA-Q4-L.Barros-Earthquake Resistance of Post tensioned Soil cement Buildings with Low Geometruc Complexity,1
BIOTECNOLOGIA-Q1-P.Villalobos-A BOD Monitoring Disposable Reactor with Alginate Entrapped Bacteria,1
BIOTECNOLOGIA-Q1-E.Sanchez-Volatile Profiles of Human Skin Cell Cultures in Different Degrees of Senescence,1
BIOTECNOLOGIA-Q1-E.Sanchez-A BOD Monitoring Disposable Reactor with Alginate Entrapped Bacteria,1
BIOTECNOLOGIA-Q1-C.Acevedo-Volatile Profiles of Human Skin Cell Cultures in Different Degrees of Senescence,1
BIOTECNOLOGIA-Q1-C.Acevedo-A BOD Monitoring Disposable Reactor with Alginate Entrapped Bacteria,1
BIOTECNOLOGIA-Q1-M.Young-Volatile Profiles of Human Skin Cell Cultures in Different Degrees of Senescence,1
BIOTECNOLOGIA-Q1-M.Young-A BOD Monitoring Disposable Reactor with Alginate Entrapped Bacteria,1
BIOTECNOLOGIA-Q2-P.Villalobos-Human Cell Line “CACO 2” Encapsulated in Alginate and Grown in an Agitated Bioreactor: A Study of Feasibility,1
BIOTECNOLOGIA-Q2-P.Villalobos-A BOD Monitoring Disposable Reactor with Alginate Entrapped Bacteria,1
BIOTECNOLOGIA-Q2-E.Sanchez-A BOD Monitoring Disposable Reactor with Alginate Entrapped Bacteria,1
BIOTECNOLOGIA-Q2-I.Ramirez-Enzymatic Hydrolysate from Squid Processing Waste as an Organic Fertilizer,1
BIOTECNOLOGIA-Q2-C.Acevedo-The Effect of an Autologous Cellular Gel matrix Integrated Implant System on Wound Healing,1
BIOTECNOLOGIA-Q2-C.Acevedo-A BOD Monitoring Disposable Reactor with Alginate Entrapped Bacteria,1
BIOTECNOLOGIA-Q2-C.Acevedo-Chemometryric Study of the Anthocyanin Pathway in Carmenere Grape,1
BIOTECNOLOGIA-Q2-M.Young-The Effect of an Autologous Cellular Gel matrix Integrated Implant System on Wound Healing,1
BIOTECNOLOGIA-Q2-M.Young-Human Cell Line “CACO 2” Encapsulated in Alginate and Grown in an Agitated Bioreactor: A Study of Feasibility,1
BIOTECNOLOGIA-Q2-M.Young-A BOD Monitoring Disposable Reactor with Alginate Entrapped Bacteria,1
BIOTECNOLOGIA-Q2-M.Young-Chemometryric Study of the Anthocyanin Pathway in Carmenere Grape,1
BIOTECNOLOGIA-Q3-C.Acevedo-Growth Factor Production from Fibrin encapsulated Human Keratinocytes,1
BIOTECNOLOGIA-Q3-M.Young-Growth Factor Production from Fibrin encapsulated Human Keratinocytes,1
BIOTECNOLOGIA-Q4-P.Villalobos-Characterization of a Gelatin/Chitosan/Hyaluronan Scaffold polymer,1
BIOTECNOLOGIA-Q4-E.Sanchez-Characterization of a Gelatin/Chitosan/Hyaluronan Scaffold polymer,1
BIOTECNOLOGIA-Q4-C.Acevedo-Characterization of a Gelatin/Chitosan/Hyaluronan Scaffold polymer,1
BIOTECNOLOGIA-Q4-M.Young-Characterization of a Gelatin/Chitosan/Hyaluronan Scaffold polymer,1
ELECTRICIDAD-Q1-P.Lezana-Survey on Fault Operation on Multilevel Inverters,1
ELECTRICIDAD-Q1-V.Hinojosa-Short term load forecasting using Fuzzy Inductive Reasoning and Evolutionary Algorithms,1
ELECTRONICA-Q1-J.Yuz-On the Equivalence of Time and Frequency Domain Maximum Likelihood Estimation,1
ELECTRONICA-Q1-J.Rodriguez-A Survey on Cascaded Multilevel Inverters,1
ELECTRONICA-Q1-J.Rodriguez-A Survey on Neutral Point Clamped Inverters,1
ELECTRONICA-Q1-J.Rodriguez-Guest Editorial Multilevel  Part I,1
ELECTRONICA-Q1-J.Rodriguez-Guest Editorial Multilevel  Part II,1
ELECTRONICA-Q1-J.Rodriguez-Medium Voltage Multilevel Converters State of the Art  Challenges and Requirements in Industrial Applications,1
ELECTRONICA-Q1-J.Rodriguez-Model Predictive Control of Multilevel Cascaded H Bridge Inverters,1
ELECTRONICA-Q1-J.Rodriguez-Predictive Torque Control of an Induction Machine Fed by a Matrix Converter with Reactive Input Power Control,1
ELECTRONICA-Q1-J.Rodriguez-Recent Advances and Industrial Applications of Multilevel Converters,1
ELECTRONICA-Q1-J.Rodriguez-Survey on Fault Operation on Multilevel Inverters,1
ELECTRONICA-Q1-M.Perez-A Survey on Cascaded Multilevel Inverters,1
ELECTRONICA-Q1-M.Perez-Recent Advances and Industrial Applications of Multilevel Converters,1
ELECTRONICA-Q1-H.Hristov-Compound Diffractive Lens Consisting of Fresnel Zone Plate and Frequency Selective Screen,1
ELECTRONICA-Q1-E.Silva-Control System Design Subject to SNR Constraints,1
ELECTRONICA-Q1-P.Cortes-Model Predictive Control of Multilevel Cascaded H Bridge Inverters,1
ELECTRONICA-Q2-M.Salgado-Performance Bounds on the Control of Highly Sparse Discrete time Multivariable Systems,1
ELECTRONICA-Q3-J.Yuz-Discussion on: "Identification of ARX and ARARX Models in the Presence of Input and Output Noises",1
ELECTRONICA-Q3-M.Salgado-Optimal Multivariable Controller Design using an ITSE Performance Index,1
ELECTRONICA-Q3-H.Hristov-Broadband two Port X Antenna Array with Flat Reflector for Polarization Diversity Applications,1
ELECTRONICA-Q3-R.Feick-Broadband two Port X Antenna Array with Flat Reflector for Polarization Diversity Applications,1
ELECTRONICA-Q3-H.Carrasco-Broadband two Port X Antenna Array with Flat Reflector for Polarization Diversity Applications,1
ELECTRONICA-Q3-E.Silva-Analysis and Design of Networked Control Systems using the Additive Noise Model Methodology,1
ELECTRONICA-Q4-M.Zuniga-A Graph based Immune inspired Constraint Satisfaction Search,1
FISICA-CUARTIL NO DEFINIDO-O.Espinosa-Wallis Ramanujan Schur Feynman,1
FISICA-Q1-P.Vargas-Asymmetrical Giant Magnetoimpedance in Exchange biased NiFe,1
FISICA-Q1-P.Vargas-Flat Bands in Slightly Twisted Bilayer Graphene: Tight binding Calculations,1
FISICA-Q1-M.Siddikov-Double Deeply Virtual Compton Scattering on Nucleons and Nuclei,1
FISICA-Q1-M.Siddikov-QCD Isospin Breaking Chi PT Low energy Constants from the Instanton Vacuum,1
FISICA-Q1-M.Siddikov-Shadowing in Compton Scattering on Nuclei,1
FISICA-Q1-I.Schmidt-Bs(d) Bs(d) Mixing Constraints on Flavor Changing Decays of t and b Quarks,1
FISICA-Q1-I.Schmidt-Determining the Saturation Scale in Nuclei,1
FISICA-Q1-I.Schmidt-Diffraction on Nuclei: Effects of Nucleon Correlations,1
FISICA-Q1-I.Schmidt-Double Deeply Virtual Compton Scattering on Nucleons and Nuclei,1
FISICA-Q1-I.Schmidt-J / ? Production in Nuclear Collisions: Theoretical approach to Measuring the Transport Coefficient,1
FISICA-Q1-I.Schmidt-Light and Heavy Mesons in a Soft wall Holographic Aproach,1
FISICA-Q1-I.Schmidt-Localization of Fermions in Double Thick D branes,1
FISICA-Q1-I.Schmidt-Modes with Variable Mass as an Alternative in AdS/QCD Models with Chiral Symmetry Breaking,1
FISICA-Q1-I.Schmidt-Orbital Structure of Quarks Inside the Nucleon in the Light cone Diquark Model,1
FISICA-Q1-I.Schmidt-Shadowing in Compton Scattering on Nuclei,1
FISICA-Q1-I.Schmidt-Updating Boer Mulders functions from Unpolarized pd and p p Drell Yan data,1
FISICA-Q1-I.Schmidt-Why Heavy and Light Quarks Radiate Energy with Similar Rates,1
FISICA-Q1-A.Rezaeian-Gluon Saturation and Inclusive Hadron Production at LHC,1
FISICA-Q1-A.Rezaeian-Hadron Multiplicity in pp and AA Collisions at LHC from the Color Glass Condensate,1
FISICA-Q1-A.Rezaeian-Hadrons and Direct Photon Production in p p and p A Collisions at the LHC and Saturation Effects,1
FISICA-Q1-F.Prokoshin-Charged particle Multiplicities in pp Interactions at  s = 900 GeV Measured with the ATLAS Detector at the LHC,1
FISICA-Q1-F.Prokoshin-Performance of the ATLAS Detector using First Collision Data,1
FISICA-Q1-F.Prokoshin-Search for New Particles in Two Jet Final States in 7 TeV Proton Proton Collisions with the ATLAS Detector at the LHC,1
FISICA-Q1-I.Potashnikova-Determining the Saturation Scale in Nuclei,1
FISICA-Q1-I.Potashnikova-Diffraction on Nuclei: Effects of Nucleon Correlations,1
FISICA-Q1-I.Potashnikova-Inelastic Processes in DIS and N=4 SYM,1
FISICA-Q1-I.Potashnikova-J / ? Production in Nuclear Collisions: Theoretical approach to Measuring the Transport Coefficient,1
FISICA-Q1-I.Potashnikova-Why Heavy and Light Quarks Radiate Energy with Similar Rates,1
FISICA-Q1-M.Pacheco-Bound States in the Continuum in Graphene Quantum Dot Structures,1
FISICA-Q1-M.Pacheco-Electronic Transport through Bilayer Graphene Flakes,1
FISICA-Q1-M.Pacheco-Flat Bands in Slightly Twisted Bilayer Graphene: Tight binding Calculations,1
FISICA-Q1-E.Levin-Gluon Saturation and Inclusive Hadron Production at LHC,1
FISICA-Q1-E.Levin-Gluon Saturation and Inclusive Production at Low Transverse Momenta,1
FISICA-Q1-E.Levin-Hadron Multiplicity in pp and AA Collisions at LHC from the Color Glass Condensate,1
FISICA-Q1-E.Levin-Inelastic Processes in DIS and N=4 SYM,1
FISICA-Q1-E.Levin-Inside Looking Out: Probing JIMWLK Wave Functions with BFKL Calculations,1
FISICA-Q1-P.Landeros-Development of vortex state in circular magnetic nanodots: Theory and experiment,1
FISICA-Q1-P.Landeros-Role of the Spin Transfer in the Ferromagnetic Resonance Response of Thin Films,1
FISICA-Q1-S.Kuleshov-Charged particle Multiplicities in pp Interactions at  s = 900 GeV Measured with the ATLAS Detector at the LHC,1
FISICA-Q1-S.Kuleshov-Differential Cross Section and Recoil Polarization Measurements for the  p  > K+ reaction using CLAS at Jefferson Lab,1
FISICA-Q1-S.Kuleshov-Differential Cross Section of n  > K+   on Bound Neutrons with Incident Photons from 1 1 to 3 6 GeV,1
FISICA-Q1-S.Kuleshov-Differential Cross Sections and Recoil Polarizations for the Reaction  p >K+ 0,1
FISICA-Q1-S.Kuleshov-Measurement of Single  and Double Spin Asymmetries in Deep Inelastic Pion Electroproduction with a Longitudinally Polarized Target,1
FISICA-Q1-S.Kuleshov-Performance of the ATLAS Detector using First Collision Data,1
FISICA-Q1-S.Kuleshov-Search for New Particles in Two Jet Final States in 7 TeV Proton Proton Collisions with the ATLAS Detector at the LHC,1
FISICA-Q1-S.Kuleshov-Tensor Correlations Measured in 3He (e e' p p)n,1
FISICA-Q1-S.Kovalenko-Bs(d) Bs(d) Mixing Constraints on Flavor Changing Decays of t and b Quarks,1
FISICA-Q1-S.Kovalenko-Lepton Flavor Violating Decays of Vector Mesons,1
FISICA-Q1-B.Kopeliovich-Determining the Saturation Scale in Nuclei,1
FISICA-Q1-B.Kopeliovich-Diffraction on Nuclei: Effects of Nucleon Correlations,1
FISICA-Q1-B.Kopeliovich-Double Deeply Virtual Compton Scattering on Nucleons and Nuclei,1
FISICA-Q1-B.Kopeliovich-J / ? Production in Nuclear Collisions: Theoretical approach to Measuring the Transport Coefficient,1
FISICA-Q1-B.Kopeliovich-Shadowing in Compton Scattering on Nuclei,1
FISICA-Q1-B.Kopeliovich-Why Heavy and Light Quarks Radiate Energy with Similar Rates,1
FISICA-Q1-H.Hakobyan-Absorption of the _ and _ Mesons in Nuclei,1
FISICA-Q1-H.Hakobyan-Differential Cross Section and Recoil Polarization Measurements for the  p  > K+ reaction using CLAS at Jefferson Lab,1
FISICA-Q1-H.Hakobyan-Differential Cross Section of n  > K+   on Bound Neutrons with Incident Photons from 1 1 to 3 6 GeV,1
FISICA-Q1-H.Hakobyan-Differential Cross Sections and Recoil Polarizations for the Reaction  p >K+ 0,1
FISICA-Q1-H.Hakobyan-Measurement of Single  and Double Spin Asymmetries in Deep Inelastic Pion Electroproduction with a Longitudinally Polarized Target,1
FISICA-Q1-H.Hakobyan-Tensor Correlations Measured in 3He (e e' p p)n,1
FISICA-Q1-P.Gaete-On Condensation of Charged Scalars in D=3 Dimensions,1
FISICA-Q1-P.Gaete-Un graviton Corrections to the Schwarzschild Black Hole,1
FISICA-Q1-C.Dib-Probing Majorana Neutrinos in Rare K and D  Ds  B  Bc meson decays,1
FISICA-Q1-C.Dib-Spin down of Neutron Stars by Neutrino Emission,1
FISICA-Q1-G.Cvetic-Modified Contour improved Perturbation Theory,1
FISICA-Q1-G.Cvetic-Probing Majorana Neutrinos in Rare K and D  Ds  B  Bc meson decays,1
FISICA-Q1-G.Cvetic-Reconciling the Analytic QCD with the ITEP Operator Product Expansion Philosophy,1
FISICA-Q1-G.Cvetic-Simple Analytic QCD Model with Perturbative QCD Behavior at High Momenta,1
FISICA-Q1-C.Contreras-Simple Analytic QCD Model with Perturbative QCD Behavior at High Momenta,1
FISICA-Q1-W.Brooks-Absorption of the _ and _ Mesons in Nuclei,1
FISICA-Q1-W.Brooks-Charged particle Multiplicities in pp Interactions at  s = 900 GeV Measured with the ATLAS Detector at the LHC,1
FISICA-Q1-W.Brooks-Differential Cross Section and Recoil Polarization Measurements for the  p  > K+ reaction using CLAS at Jefferson Lab,1
FISICA-Q1-W.Brooks-Differential Cross Section of n  > K+   on Bound Neutrons with Incident Photons from 1 1 to 3 6 GeV,1
FISICA-Q1-W.Brooks-Differential Cross Sections and Recoil Polarizations for the Reaction  p >K+ 0,1
FISICA-Q1-W.Brooks-Measurement of Single  and Double Spin Asymmetries in Deep Inelastic Pion Electroproduction with a Longitudinally Polarized Target,1
FISICA-Q1-W.Brooks-Observation of a Centrality Dependent Dijet Asymmetry in Lead Lead Collisions at root SNN=2.76 Te V with the ATLAS Detector at the LHC,1
FISICA-Q1-W.Brooks-Performance of the ATLAS Detector using First Collision Data,1
FISICA-Q1-W.Brooks-Search for New Particles in Two Jet Final States in 7 TeV Proton Proton Collisions with the ATLAS Detector at the LHC,1
FISICA-Q1-W.Brooks-Tensor Correlations Measured in 3He (e e' p p)n,1
FISICA-Q1-Z.Barticevic-Flat Bands in Slightly Twisted Bilayer Graphene: Tight binding Calculations,1
FISICA-Q1-O.Espinosa-On the Evaluation of Matsubara Sums,1
FISICA-Q1-O.Espinosa-Simple Analytic QCD Model with Perturbative QCD Behavior at High Momenta,1
FISICA-Q2-P.Vargas-Energy Loss of Protons in Carbon Nanotubes: Experiments and Calculations,1
FISICA-Q2-P.Vargas-Magnetocaloric Features of Complex Molecular Magnets: The (Cr7Ni)2Cu molecular Magnet and Beyond,1
FISICA-Q2-P.Vargas-Quenching Points of Dimeric Single molecule Magnets: Exchange Interaction Effects,1
FISICA-Q2-P.Vargas-Surface Channelling and Energy Losses of 4 keV Hydrogen and Fluorine Ions in Grazing Scattering on Au(111) and Missing row Reconstructed Au(110) Surfaces,1
FISICA-Q2-J.Valdes-Energy Loss of Protons in Carbon Nanotubes: Experiments and Calculations,1
FISICA-Q2-J.Valdes-Surface Channelling and Energy Losses of 4 keV Hydrogen and Fluorine Ions in Grazing Scattering on Au(111) and Missing row Reconstructed Au(110) Surfaces,1
FISICA-Q2-R.Rojas-Aportes a la Teoria y la Implementacion del Metodo LSCR,1
FISICA-Q2-F.Prokoshin-Commissioning of the ATLAS Muon Spectrometer with Cosmic Rays,1
FISICA-Q2-F.Prokoshin-Drift Time Measurement in the ATLAS Liquid Argon Electromagnetic Calorimeter using Cosmic Muons,1
FISICA-Q2-F.Prokoshin-Readiness of the ATLAS Liquid Argon Calorimeter for LHC Collisions,1
FISICA-Q2-F.Prokoshin-Readiness of the ATLAS Tile Calorimeter for LHC Collisions,1
FISICA-Q2-F.Prokoshin-The ATLAS Inner Detector Commissioning and Calibration,1
FISICA-Q2-F.Prokoshin-The ATLAS Simulation Infrastructure,1
FISICA-Q2-I.Potashnikova-Critical Examination of the "Field theoretical Approach" to the Neutron antineutron Oscillations in Nuclei,1
FISICA-Q2-M.Pacheco-Infrared Absorption in Quantum Wires: Effects of Impurities and External Fields,1
FISICA-Q2-M.Pacheco-Tight binding Model for Carbon Nanotubes from ab initio calculations,1
FISICA-Q2-P.Landeros-Domain Wall Motion on Magnetic Nanotubes,1
FISICA-Q2-P.Landeros-Spin Wave Spectrum of Magnetic Nanotubes,1
FISICA-Q2-S.Kuleshov-Commissioning of the ATLAS Muon Spectrometer with Cosmic Rays,1
FISICA-Q2-S.Kuleshov-Drift Time Measurement in the ATLAS Liquid Argon Electromagnetic Calorimeter using Cosmic Muons,1
FISICA-Q2-S.Kuleshov-Measurement of the Nucleon Structure Function F2 in the Nuclear Medium and Evaluation of its Moments,1
FISICA-Q2-S.Kuleshov-Readiness of the ATLAS Liquid Argon Calorimeter for LHC Collisions,1
FISICA-Q2-S.Kuleshov-Readiness of the ATLAS Tile Calorimeter for LHC Collisions,1
FISICA-Q2-S.Kuleshov-The ATLAS Inner Detector Commissioning and Calibration,1
FISICA-Q2-S.Kuleshov-The ATLAS Simulation Infrastructure,1
FISICA-Q2-H.Hakobyan-Measurement of the Nucleon Structure Function F2 in the Nuclear Medium and Evaluation of its Moments,1
FISICA-Q2-P.Häberle-Carbon Nanostructures/cadmium sulfide Hybrid Heterostructures Formation,1
FISICA-Q2-P.Häberle-Growth Morphology of Ultra thin Ni Films on Pd(100),1
FISICA-Q2-G.Cvetic-Analytic QCD Coupling with no Power Terms in the UV Regime,1
FISICA-Q2-A.Cortes-Carbon Nanostructures/cadmium sulfide Hybrid Heterostructures Formation,1
FISICA-Q2-A.Cortes-Magnetic Properties of Arrays of Nanowires: Anisotropy  Interactions  and Reversal Modes,1
FISICA-Q2-W.Brooks-Commissioning of the ATLAS Muon Spectrometer with Cosmic Rays,1
FISICA-Q2-W.Brooks-Drift Time Measurement in the ATLAS Liquid Argon Electromagnetic Calorimeter using Cosmic Muons,1
FISICA-Q2-W.Brooks-Measurement of the Nucleon Structure Function F2 in the Nuclear Medium and Evaluation of its Moments,1
FISICA-Q2-W.Brooks-Readiness of the ATLAS Liquid Argon Calorimeter for LHC Collisions,1
FISICA-Q2-W.Brooks-Readiness of the ATLAS Tile Calorimeter for LHC Collisions,1
FISICA-Q2-W.Brooks-The ATLAS Inner Detector Commissioning and Calibration,1
FISICA-Q2-W.Brooks-The ATLAS Simulation Infrastructure,1
FISICA-Q2-Z.Barticevic-Infrared Absorption in Quantum Wires: Effects of Impurities and External Fields,1
FISICA-Q3-P.Häberle-Growth Morphology of Ultra thin Ni Films on Pd(100),1
FISICA-Q3-P.Gaete-Born Infeld Electrodynamics and Euler Heisenberg like Model: Outstanding Examples of the Lack of Commutativity among Quantized Truncated Actions and Truncated Quantized Actions,1
FISICA-Q3-P.Gaete-Confining Potential from Interacting Magnetic and Torsion Fields,1
FISICA-Q3-A.Cortes-The Perception of the Values of Urban Space by Senior Citizens of Valparaiso,1
FISICA-Q3-O.Espinosa-The Evaluation of Tornheim Double Sums. Part 2,1
FISICA-Q4-P.Landeros-Domain Wall Motion on Magnetic Nanotubes,1
FISICA-Q4-C.Garin-Electron Transfer Rates of Alkyl Ferrocene Molecules Forming Incomplete Monolayer on Silicon Electrodes,1
FISICA-Q4-A.Cortes-Magnetic Properties of Arrays of Nanowires: Anisotropy  Interactions  and Reversal Modes,1
FISICA-Q4-A.Cortes-Magnetic Properties of Cobalt Nanowire Arrays,1
FISICA-Q4-Z.Lu-Comparing AdS/CFT Dipole Model to HERA F (2) Data,1
IMM-Q1-K.Tello-Scaling of Coupled Heat Transfer and Plastic Deformation around the Pin in Friction Stir Welding,1
INDUSTRIAS-CUARTIL NO DEFINIDO-W.Kristjanpoller-Comparacion de Modelos de Prediccion de Retornos Accionarios en el Mercado Accionario Chileno: CAPM  FAMA y FRENCH y REWARD BETA,1
INDUSTRIAS-CUARTIL NO DEFINIDO-D.Fuenzalida-Explorando Teorias de Estructura de Capital en Latinoamerica,1
INDUSTRIAS-Q1-P.Isla-Size and Probability of Rewards Modulate the Feedback Error related Negativity Associated with Wins but not Losses in a Monetarily Rewarded Gambling Task,1
INDUSTRIAS-Q1-M.Garate-On the Self Assembly of a Highly Selective Benzothiazole Based TIM Inhibitor in Aqueous Solution,1
INDUSTRIAS-Q2-M.Molina-Effect of Ash from Forest Fires on Phosphorus Availability  Transport  Chemical Forms  and Content in Volcanic Soils,1
INDUSTRIAS-Q3-R.Ortega-Biocombustibles en Chile. I. Identificacion y Balance Energetico de la Produccion de Materias Primas y de Biocombustibles,1
INDUSTRIAS-Q3-R.Ortega-Biocombustibles en Chile. II. Evaluacion Economica de la Elaboracion de Biocombustibles,1
INDUSTRIAS-Q3-R.Ortega-Biocombustibles en Chile. III. Localizacion Simultanea de Centros de Acopio y Plantas Productoras,1
INDUSTRIAS-Q3-R.Munoz-Biocombustibles en Chile. I. Identificacion y Balance Energetico de la Produccion de Materias Primas y de Biocombustibles,1
INDUSTRIAS-Q3-R.Munoz-Biocombustibles en Chile. II. Evaluacion Economica de la Elaboracion de Biocombustibles,1
INDUSTRIAS-Q3-R.Munoz-Biocombustibles en Chile. III. Localizacion Simultanea de Centros de Acopio y Plantas Productoras,1
INDUSTRIAS-Q3-L.Acosta-Biocombustibles en Chile. I. Identificacion y Balance Energetico de la Produccion de Materias Primas y de Biocombustibles,1
INDUSTRIAS-Q3-L.Acosta-Biocombustibles en Chile. II. Evaluacion Economica de la Elaboracion de Biocombustibles,1
INDUSTRIAS-Q3-L.Acosta-Biocombustibles en Chile. III. Localizacion Simultanea de Centros de Acopio y Plantas Productoras,1
INFORMATICA-CUARTIL NO DEFINIDO-A.Zamyatnin-Antimicrobial and other Oligopeptides of Grapes,1
INFORMATICA-Q1-L.Salinas-New Polya Schoenberg Type Theorems,1
INFORMATICA-Q1-M.Riff-DVRP: A Hard Dynamic Combinatorial Optimisation Problem Tackled by an Evolutionary Hyper heuristic,1
INFORMATICA-Q1-C.Lobos-A Fast and Robust Patient Specific Finite Element Mesh Registration Technique: Application to 60 Clinical Cases,1
INFORMATICA-Q2-A.Zamyatnin-Antimicrobial Oligopeptides and Rapid Alkalinization Factors in Chilean Grapa,1
INFORMATICA-Q2-A.Zamyatnin-Peptide Fragmentomics,1
INFORMATICA-Q2-M.Riff-DVRP: A Hard Dynamic Combinatorial Optimisation Problem Tackled by an Evolutionary Hyper heuristic,1
INFORMATICA-Q2-C.Lobos-The Isochronal Fibration: Characterization and Implication in Biology,1
INFORMATICA-Q3-A.Zamyatnin-Antimicrobial Oligopeptides and Rapid Alkalinization Factors in Chilean Grapa,1
INFORMATICA-Q3-A.Zamyatnin-Peptide Fragmentomics,1
INFORMATICA-Q3-R.Monge-Parallel Approach for Ensemble Learning with Locally Coupled Neural Networks,1
INFORMATICA-Q3-H.Allende-Parallel Approach for Ensemble Learning with Locally Coupled Neural Networks,1
INFORMATICA-Q3-H.Allende-Robust Design in Multivariate Systems using Genetic Algorithms,1
INFORMATICA-Q4-M.Riff-A Graph based Immune inspired Constraint Satisfaction Search,1
ING. QUIMICA-Q1-L.Guerrero-Kinetic Evaluation and Performance of Pilot Scale Fed Batch Aerated Lagoons Treating Winery Wastewaters,1
ING. QUIMICA-Q1-J.delaFuente-Equimolar CO2 Absorption by Anion Functionalized Ionic Liquids,1
ING. QUIMICA-Q1-J.delaFuente-Measurement and Modeling of High pressure (vapour+liquid) Equilibria of (CO2 + alcohol) Binary Systems,1
ING. QUIMICA-Q1-J.delaFuente-Solubilities in Supercritical Carbon Dioxide of (2E 6E) 3 7 11 Trimetyldodeca 2 6 10 trien 1 ol (Farnesol) and (2S) 5 7 Dihydroxy 2 (4 hydroxyphenyl)chroman 4 one (Naringenin),1
ING. QUIMICA-Q2-J.Yianatos-A Novel Scale up Approach for Mechanical Flotation Cells,1
ING. QUIMICA-Q2-J.Yianatos-Estimation of the Actual Bubble Surface Area Flux in Flotation,1
ING. QUIMICA-Q2-J.Yianatos-Flotation Rate Distribution in the Collection Zone of Industrial Cells,1
ING. QUIMICA-Q2-J.Yianatos-GAS Holdup and RTD Measurement an Industrial Flotation Cell,1
ING. QUIMICA-Q2-J.Yianatos-Measurement of Particle Loading on Bubbles in the Flotation Process,1
ING. QUIMICA-Q2-J.Yianatos-Particle Entrainment Model for Industrial Flotation Cells,1
ING. QUIMICA-Q2-L.Vinnett-Estimation of the Actual Bubble Surface Area Flux in Flotation,1
ING. QUIMICA-Q2-L.Vinnett-Flotation Rate Distribution in the Collection Zone of Industrial Cells,1
ING. QUIMICA-Q2-P.Valencia-Batch Reactor Performance for Enzymatic Synthesis of Cephalexin: Influence of Catalyst Enzyme Loading and Particle Size,1
ING. QUIMICA-Q2-P.Valencia-Evaluation of the Incidence of Diffusional Restrictions on the Enzymatic Reactions of Hydrolysis of Penicillin G and Synthesis of Cephalexin,1
ING. QUIMICA-Q2-P.Valencia-Modelling of Protein Hydrolysis Kinetic: Algorithms and Software,1
ING. QUIMICA-Q2-P.Valencia-Temperature effect on Heterogeneous Enzyme Catalyzed Reaction: Thiele Modulus and Effectiveness Factor Analysis,1
ING. QUIMICA-Q2-A.Urtubia-Enzymatic Hydrolysate from Squid Processing Waste as an Organic Fertilizer,1
ING. QUIMICA-Q2-A.Urtubia-A Study of Different Multi effect Evaporators Designed for Thermal Processing of Tomato Paste: Optimization and Quality Evaluation,1
ING. QUIMICA-Q2-A.Urtubia-Application of MPCA and MPLS on Industrial Batch Bioprocesses,1
ING. QUIMICA-Q2-A.Urtubia-Modified Atmosphere Packaging Preserves Quality and Antioxidant Properties in Fragaria chiloensis,1
ING. QUIMICA-Q2-A.Urtubia-Multivariate Statistic and Pattern Recognition Methods to Detect Abnormal Fermantations in Wine Process,1
ING. QUIMICA-Q2-R.Simpson-Enzymatic Hydrolysate from Squid Processing Waste as an Organic Fertilizer,1
ING. QUIMICA-Q2-R.Simpson-Human Cell Line “CACO 2” Encapsulated in Alginate and Grown in an Agitated Bioreactor: A Study of Feasibility,1
ING. QUIMICA-Q2-R.Simpson-A Study of Different Multi effect Evaporators Designed for Thermal Processing of Tomato Paste: Optimization and Quality Evaluation,1
ING. QUIMICA-Q2-R.Simpson-Development of an Ingredient Containing Apple Peel  as a Source of Polyphenols and Dietary Fiber,1
ING. QUIMICA-Q2-R.Simpson-Improvement of Functional Properties of Salmon Processing Protein rich by product through Hydrolysis and Maillard Reaction,1
ING. QUIMICA-Q2-R.Simpson-Modelling of Protein Hydrolysis Kinetic: Algorithms and Software,1
ING. QUIMICA-Q2-R.Simpson-Chemometryric Study of the Anthocyanin Pathway in Carmenere Grape,1
ING. QUIMICA-Q2-J.delaFuente-Extraction of Bioactive Flavonoid Compounds from Orange (Citrus sinansis) Peel using Supercritical CO(2),1
ING. QUIMICA-Q2-J.delaFuente-Measurement and Modeling of High pressure (vapour+liquid) Equilibria of (CO2 + alcohol) Binary Systems,1
ING. QUIMICA-Q2-J.delaFuente-Solubility of Nutraceutical Caratenoid Compounds in Pure Supercritical CO(2) and Modified with Triolein or Ethanol,1
ING. QUIMICA-Q2-L.Bergh-Flotation Rate Distribution in the Collection Zone of Industrial Cells,1
ING. QUIMICA-Q2-S.Almonacid-Enzymatic Hydrolysate from Squid Processing Waste as an Organic Fertilizer,1
ING. QUIMICA-Q2-S.Almonacid-Human Cell Line “CACO 2” Encapsulated in Alginate and Grown in an Agitated Bioreactor: A Study of Feasibility,1
ING. QUIMICA-Q2-S.Almonacid-A Study of Different Multi effect Evaporators Designed for Thermal Processing of Tomato Paste: Optimization and Quality Evaluation,1
ING. QUIMICA-Q2-S.Almonacid-Application of MPCA and MPLS on Industrial Batch Bioprocesses,1
ING. QUIMICA-Q2-S.Almonacid-Development of an Ingredient Containing Apple Peel  as a Source of Polyphenols and Dietary Fiber,1
ING. QUIMICA-Q2-S.Almonacid-Improvement of Functional Properties of Salmon Processing Protein rich by product through Hydrolysis and Maillard Reaction,1
ING. QUIMICA-Q2-S.Almonacid-Modelling of Protein Hydrolysis Kinetic: Algorithms and Software,1
ING. QUIMICA-Q2-S.Almonacid-Chemometryric Study of the Anthocyanin Pathway in Carmenere Grape,1
ING. QUIMICA-Q2-A.Abakarov-A Study of Different Multi effect Evaporators Designed for Thermal Processing of Tomato Paste: Optimization and Quality Evaluation,1
ING. QUIMICA-Q2-A.Abakarov-Improvement of Functional Properties of Salmon Processing Protein rich by product through Hydrolysis and Maillard Reaction,1
ING. QUIMICA-Q2-A.Abakarov-Modelling of Protein Hydrolysis Kinetic: Algorithms and Software,1
ING. QUIMICA-Q2-A.Abakarov-Temperature effect on Heterogeneous Enzyme Catalyzed Reaction: Thiele Modulus and Effectiveness Factor Analysis,1
ING. QUIMICA-Q3-J.Yianatos-On the Carrying Capacity Limitation in Large Flotation Cells,1
ING. QUIMICA-Q3-A.Urtubia-To Heat or Not to Heat,1
ING. QUIMICA-Q3-R.Simpson-Determination of Antioxidant Capacity  Total Phenolic Content and Mineral Composition of Different Fruit Tissue of Five Apple Cultivars Grown in Chile,1
ING. QUIMICA-Q3-R.Simpson-To Heat or Not to Heat,1
ING. QUIMICA-Q3-A.Rojo-Electrodialytic Remediation of Copper Mine Tailing with Sinusoidal Electric Field,1
ING. QUIMICA-Q3-L.Guerrero-Effect of the Influent COD Concentration on the Anaerobic Digestion of Winery Wastewaters from Grape Red and Tropical Fruit (Guava) Wine Production in Fluidized Bed Reactors with Chilean Natural Zeolite for Biomass Immovilization,1
ING. QUIMICA-Q3-L.Borzone-A Comparison of Particle Wear in Pneumatic Transport,1
ING. QUIMICA-Q3-S.Almonacid-Determination of Antioxidant Capacity  Total Phenolic Content and Mineral Composition of Different Fruit Tissue of Five Apple Cultivars Grown in Chile,1
ING. QUIMICA-Q3-S.Almonacid-To Heat or Not to Heat,1
ING. QUIMICA-Q3-S.Almonacid-Uncertainty of Microbial Shelf life Estimations for Refrigerated foods Due to the Experimental Variability of the Model Parameters,1
ING. QUIMICA-Q3-A.Abakarov-To Heat or Not to Heat,1
MATEMATICA-CUARTIL NO DEFINIDO-R.Hidalgo-Maximal virtual Schottky groups: Explicit constructions,1
MATEMATICA-CUARTIL NO DEFINIDO-R.Hidalgo-A short note on M symmetric hyperelliptic Riemann Surfaces,1
MATEMATICA-CUARTIL NO DEFINIDO-V.Gonzalez-On a Schottky problema for the singular locus of A_5,1
MATEMATICA-CUARTIL NO DEFINIDO-I.Flores-Multiplicity of solutions for a fourth order equation with power type nonlinearity. ,1
MATEMATICA-CUARTIL NO DEFINIDO-E.Cerpa-Null controllability and stabilization of a linear Kuramoto Sivashinsky equation  Commun. ,1
MATEMATICA-CUARTIL NO DEFINIDO-L.Briceno-Proximal method for geometry and texture image decomposition,1
MATEMATICA-Q1-J.Tan-Positive Solutions of Nonlinear Problems Involving the Square Root of the Laplacian,1
MATEMATICA-Q1-J.Tan-Geometry of phase plane and radial solutions fornonlinear elliptic equations with extremal operator,1
MATEMATICA-Q1-A.Quaas-Eigenvalues for Radially Symmetric Fully Nonlinear Operators,1
MATEMATICA-Q1-A.Quaas-Geometry of Phase Plane and Radial Solutions for Nonlinear Elliptic Equations with Extremal Operators,1
MATEMATICA-Q1-A.Quaas-Harnack Inequality for Singular Fully Nonlinear Operators and some Existence Results,1
MATEMATICA-Q1-A.Quaas-Landesman Lazer Type Results for Second Order Hamilton Jacobi Bellman Equations,1
MATEMATICA-Q1-A.Quaas-Large Number of Fast Decay Ground States to Matukuma type Equations,1
MATEMATICA-Q1-A.Quaas-Resonance Phenomena for Second Order Stochastic Control Equations,1
MATEMATICA-Q1-A.Quaas-Geometry of phase plane and radial solutions fornonlinear elliptic equations with extremal operator,1
MATEMATICA-Q1-J.Peypouquet-Asymptotic almost equivalence of Lipschitz Evolution Systems in Banach Spaces,1
MATEMATICA-Q1-J.Peypouquet-Evolution Equations for Maximal Monotone Operators: Asymptotic Analysis in Continuous and Discrete Time,1
MATEMATICA-Q1-F.Osorio-Exact estimation procedures in a spatial mixed effects probit model with binary outcomes. In Joint Statistical Meetings Proceedings  Statistical Computing Section,1
MATEMATICA-Q1-L.Iturriaga-Exact number of solutions of stationary reaction diffusion equations,1
MATEMATICA-Q1-L.Iturriaga-Positive solutions of the p Laplacian involving a superlinear nonlinearity with zeros,1
MATEMATICA-Q1-R.Hidalgo-Lowest uniformizations of closed Riemann orbifolds,1
MATEMATICA-Q1-E.Hernandez-Numerical Approximation of the LQR Problem in a Strongly Damped Wave Equation,1
MATEMATICA-Q1-P.Gajardo-Various Lipschitz like Properties for Functions and Sets I: Directional Derivative and Tangential Characterizations,1
MATEMATICA-Q1-E.Cerpa-Boundary Stabilization of a 1 D Wave Equation with In Domain Antidamping,1
MATEMATICA-Q1-L.Briceno-A parallel splitting method for coupled monotone inclusions,1
MATEMATICA-Q1-L.Briceno-An integrated behavioral model of the land use and transport systems with network congestion and location externalities,1
MATEMATICA-Q1-S.Alarcon-Expanding the Asymptotic Explisive Boundary Behavior of large Solutions to a Semilinear Elliptic Equation,1
MATEMATICA-Q1-S.Alarcon-Large Number of Fast Decay Ground States to Matukuma type Equations,1
MATEMATICA-Q2-C.Spa-Compensation of the Afterglow Phenomenon in 2 D Discrete Time Simulations,1
MATEMATICA-Q2-A.Quaas-Superlinear Elliptic Equation for Fully Nonlinear Operators without Growth Restrictions for the Data,1
MATEMATICA-Q2-A.Piazza-On Uniform Convergence of Undiscounted Optimal Programs in the Mitra Wan Forestry Model: The Strictly Concave Case,1
MATEMATICA-Q2-L.Iturriaga-A quasilinear problem without the Ambrosetti Rabinowitz type condition,1
MATEMATICA-Q2-L.Iturriaga-Positive solutions for the p Laplacian involving critical and supercritical nonlinearities with zeros,1
MATEMATICA-Q2-L.Iturriaga-Existence of solutions to quasilinear elliptic equations with singular weights.,1
MATEMATICA-Q2-R.Hidalgo-Double Schottky Covers,1
MATEMATICA-Q2-R.Hidalgo-Fixed points of imaginary reflections on hyperbolic handlebodies,1
MATEMATICA-Q2-E.Cerpa-Boundary Stabilization of a 1 D Wave Equation with In Domain Antidamping,1
MATEMATICA-Q2-L.Briceno-A parallel splitting method for coupled monotone inclusions,1
MATEMATICA-Q3-A.Piazza-About Optimal Harvesting Policies for a Multiple Species Forest without Discounting,1
MATEMATICA-Q3-A.Piazza-On the Non existence of Optimal Programs in the Robinson Solow Srinivasan (RSS) Model,1
MATEMATICA-Q3-R.Hidalgo-Structure of Whittaker groups and applications to conformal involutions on handlebodies,1
MATEMATICA-Q4-R.Hidalgo-Geometric orbifolds with torsion free derived subgroup,1
MATEMATICA-Q4-R.Hidalgo-Maximal Schottky extension groups,1
MATEMATICA-Q4-R.Hidalgo-Navier Stokes Equations on Weighted Graphs,1
MATEMATICA-Q4-A.Mednykh-Geometric orbifolds with torsion free derived subgroup,1
MECANICA-Q1-M.Toledo-Flame Stabilization between Two Beds of Alumina Balls in a Porous Burner,1
MECANICA-Q1-A.Olivares-Degradation Model for an Extruded Polymeric Solar Thermal Absorber,1
MECANICA-Q2-M.Toledo-Flame Stabilization between Two Beds of Alumina Balls in a Porous Burner,1
MECANICA-Q2-F.Labbe-Necking Progression in Tensile Specimens Monitores in Real time by using Fringe Projection,1
O.CIVILES-Q1-H.Jensen-Discrete continuous Variable Structural Optimization of Systems under Stochastic Loading,1
O.CIVILES-Q1-R.Galindo-A BOD Monitoring Disposable Reactor with Alginate Entrapped Bacteria,1
O.CIVILES-Q1-M.Bravo-An integrated behavioral model of the land use and transport systems with network congestion and location externalities,1
O.CIVILES-Q1-F.Albornoz-A BOD Monitoring Disposable Reactor with Alginate Entrapped Bacteria,1
O.CIVILES-Q2-R.Galindo-A BOD Monitoring Disposable Reactor with Alginate Entrapped Bacteria,1
O.CIVILES-Q2-R.Delgadillo-Closure to ‘Effects of Temperature and Pressure on Hot Mixed Asphalt Compaction: Field and Laboratory Study’,1
O.CIVILES-Q2-F.Albornoz-The Effect of an Autologous Cellular Gel matrix Integrated Implant System on Wound Healing,1
O.CIVILES-Q2-F.Albornoz-A BOD Monitoring Disposable Reactor with Alginate Entrapped Bacteria,1
O.CIVILES-Q4-R.Delgadillo-The Relationship between Nonlinearity of Asphalt Binders and Asphalt Mixture Permanent Deformation,1
O.CIVILES-Q4-F.Albornoz-Characterization of a Gelatin/Chitosan/Hyaluronan Scaffold polymer,1
QUIMICA-Q1-E.Valdes-A BOD Monitoring Disposable Reactor with Alginate Entrapped Bacteria,1
QUIMICA-Q1-C.Morgado-Reference MP2/CBS and CCSD(T) Quantum Chemical Calculations on Stacked Adenine Dimers. Comparison with DFT D  MP2.5  SCS(MI) MP2  M06 2X  CBS(SCS D) and Force Field Descriptions,1
QUIMICA-Q1-L.Espinoza-On the Self Assembly of a Highly Selective Benzothiazole Based TIM Inhibitor in Aqueous Solution,1
QUIMICA-Q1-H.Pena-Discrimination of Wine Attributes by Metabolome,1
QUIMICA-Q2-E.Valdes-A BOD Monitoring Disposable Reactor with Alginate Entrapped Bacteria,1
QUIMICA-Q2-M.Seeger-Bioaugmentation with Pseudomonas sp.strain MHP41 Promotes Simazine Attenuation and Bacterial Community Changes in Agricultural Soils,1
QUIMICA-Q2-M.Seeger-Bioaugmentation with Pseudomonas sp.strain MHP41 Promotes Simazine Attenuation and Bacterial Community Changes in Agricultural Soils (Vol. 71  pg. 114  2009),1
QUIMICA-Q2-M.Seeger-Improved Biocatalysts for Remediation of PCB contaminated Environments,1
QUIMICA-Q2-M.Seeger-Isolation of Hydrocarbon degrading Heavy metal resistant bacteria from Crude Oil contaminated Soil in Central Chile,1
QUIMICA-Q2-M.Seeger-Mineralization of PCBs by the Genetically Modified Strain Cupriavidus necator JMS34 and its applications for Bioremediation of PCBs in Soil,1
QUIMICA-Q2-M.Piovano-Pro apoptotic Activity of Ergosterol Peroxide and (22E) ergosta 7 22 dien 5? hydroxy 3 6  dione in Human Prostate Cancer Cells,1
QUIMICA-Q2-C.Morgado-Reference MP2/CBS and CCSD(T) Quantum Chemical Calculations on Stacked Adenine Dimers. Comparison with DFT D  MP2.5  SCS(MI) MP2  M06 2X  CBS(SCS D) and Force Field Descriptions,1
QUIMICA-Q2-L.Espinoza-Pro apoptotic Activity of Ergosterol Peroxide and (22E) ergosta 7 22 dien 5? hydroxy 3 6  dione in Human Prostate Cancer Cells,1
QUIMICA-Q2-L.Espinoza-Synthesis and Antitumor Activity of Diterpenylhydroquinone Derivatives of Natural Ent Labdanes,1
QUIMICA-Q2-K.Catalan-Synthesis and Antitumor Activity of Diterpenylhydroquinone Derivatives of Natural Ent Labdanes,1
QUIMICA-Q2-A.Aizman-Invariance of Electrophilicity of Independent Fragments. Application to Intramolecular Diels Alder Reactions,1
QUIMICA-Q2-A.Aizman-Permanent Group Effect on Nucleofugality in Aryl Benzoates,1
QUIMICA-Q2-A.Aizman-Phenomenological Chemical Reactivity Theory for Mobile Electrons,1
QUIMICA-Q2-H.Pena-Enzymatic Hydrolysate from Squid Processing Waste as an Organic Fertilizer,1
QUIMICA-Q3-P.Reveco-Cytotoxic Thiocarbamate Derivatives of Boldine,1
QUIMICA-Q3-L.Espinoza-Cytotoxic Thiocarbamate Derivatives of Boldine,1
QUIMICA-Q4-M.Seeger-Bacterial Degradation and Bioremediation of Chlorinated Herbicides and Biphenyls,1
QUIMICA-Q4-P.Reveco-Cytotoxic Thiocarbamate Derivatives of Boldine,1
QUIMICA-Q4-L.Espinoza-Cytotoxic Thiocarbamate Derivatives of Boldine,1
QUIMICA-Q4-L.Espinoza-Synthesis of Nine Safrole Derivatives and their Antiproliferative Activity Towards Human Cancer Cells,1
SIN DEFINIR-Q4-I.Szanto-A systems of degree four with an invariant triangle and at least small amplitude limit cycles,1
